<svg width="224" height="132" viewBox="0 0 224 132" fill="none" xmlns="http://www.w3.org/2000/svg">
<path d="M106.109 0C106.101 0.00272506 106.094 0.00749939 106.086 0.0226386C106.018 0.0907652 105.971 0.31487 105.957 0.688053C105.926 1.36326 106.076 1.74185 106.289 1.52915C106.506 1.31644 106.525 0.763389 106.343 0.300886C106.266 0.109375 106.197 0.0124331 106.139 0.00334959C106.131 0.00191137 106.117 -0.00272506 106.109 0ZM108.82 0.586641C108.731 0.59421 108.614 0.647139 108.471 0.734947C108.119 0.952952 107.849 1.76204 107.872 2.53437C107.917 3.88835 107.94 3.89161 108.471 2.65542C109.041 1.33202 109.183 0.65142 108.898 0.590106C108.875 0.584429 108.853 0.583007 108.82 0.586641ZM125.763 1.05593C125.389 1.05593 125.262 1.34586 125.481 1.69709C125.699 2.04983 126.003 2.33444 126.159 2.33444C126.314 2.33444 126.441 2.04983 126.441 1.69709C126.441 1.34434 126.137 1.05593 125.763 1.05593ZM124.125 1.70159C123.987 1.70159 123.874 2.13538 123.874 2.66397C123.874 3.19232 124.156 3.62622 124.497 3.62622C124.839 3.62622 124.952 3.19323 124.748 2.66397C124.545 2.13561 124.264 1.70159 124.125 1.70159ZM121.509 1.86584C121.383 1.83556 121.448 2.10506 121.646 2.66385C121.891 3.36858 122.24 4.45263 122.417 5.06955C122.595 5.68647 122.995 6.18831 123.307 6.18831C124.316 6.18831 123.911 4.44715 122.539 2.89463C121.956 2.23531 121.634 1.89839 121.509 1.86584ZM117.321 3.07065C114.515 3.08579 113.191 5.68737 115.209 7.7021C116.465 8.95586 116.434 10.6139 115.123 12.0598C114.235 13.039 114.204 13.3803 114.931 14.2542C115.66 15.1327 115.627 15.3833 114.7 15.9011C113.457 16.596 113.26 18.4107 114.316 19.4646C114.836 19.9839 114.648 20.375 113.615 20.9276C112.25 21.6573 112.189 22.2984 113.247 24.851C113.604 25.7115 113.033 25.9577 109.846 26.318C100.986 27.319 89.4914 31.7951 81.9111 37.1964C79.7252 38.754 76.0106 42.1786 73.6532 44.8087C69.8722 49.0271 69.0407 49.6351 66.6097 49.9682C61.9083 50.6116 42.8815 55.4513 36.2027 57.7016C27.7203 60.5593 19.9551 64.5399 16.5685 67.7664C15.0455 69.2175 13.0126 70.8132 12.0478 71.3143C10.2447 72.2508 8.34585 75.1829 8.34585 77.0293C8.34585 78.4494 13.1947 84.621 17.4931 88.6705C24.7156 95.475 40.6473 103.957 54.5559 108.405C58.6155 109.704 62.0448 110.873 62.1752 111.002C62.3056 111.132 61.4153 112.402 60.197 113.823C54.9517 119.942 52.7636 126.989 55.492 128.981C58.1323 130.909 61.615 129.25 61.615 126.066C61.615 123.981 60.5446 122.835 58.5986 122.835C57.7865 122.835 57.1256 122.527 57.1256 122.151C57.1256 120.97 63.7503 114.831 66.3316 113.62C69.2355 112.257 69.8761 112.306 85.6837 115.043C100.973 117.691 115.021 118.556 128.869 117.7C144.679 116.722 152.564 115.723 162.849 113.401C165.131 112.885 169.739 116.038 172.662 120.113L175.291 123.778L173.41 124.267C172.377 124.535 171.185 125.171 170.762 125.679C169.558 127.128 170.202 130.073 171.906 130.917C173.872 131.89 175.707 131.36 176.956 129.458C179.071 126.234 176.494 117.089 172.396 113.272C171.478 112.417 170.731 111.538 170.731 111.32C170.731 111.102 172.034 110.576 173.63 110.15C185.383 107.011 205.542 98.0707 212.064 93.1067C216.749 89.5405 224 81.414 224 79.7286C224 78.6137 222.511 76.796 216.87 71.0328C214.404 68.5129 205.888 63.7053 199.289 61.1088C193.892 58.9854 169.276 52.335 166.813 52.335C166.202 52.335 164.624 50.8685 163.303 49.0726C159.156 43.4306 149.774 35.6352 143.442 32.5731C137.019 29.467 128.507 26.8312 123.071 26.2635C121.042 26.0515 119.381 25.7259 119.381 25.5397C119.381 25.3535 119.881 24.6505 120.49 23.979C121.545 22.815 121.522 22.6999 120.008 21.5576C118.737 20.5986 118.578 20.2022 119.22 19.5587C120.312 18.4649 120.232 16.6625 119.072 16.2181C118.401 15.9608 118.233 15.3034 118.496 13.9845C118.71 12.9135 118.564 11.9304 118.163 11.6806C117.021 10.9759 117.351 9.12845 118.778 8.23827C119.755 7.62891 120.049 6.88034 119.902 5.36316C119.736 3.64667 119.408 3.27477 117.9 3.10218C117.701 3.07948 117.508 3.07065 117.321 3.07065ZM116.106 4.22846C116.241 4.21332 116.397 4.27786 116.56 4.44364C116.773 4.65635 116.827 5.19528 116.678 5.6406C116.46 6.29234 116.31 6.28635 115.906 5.63309C115.505 4.98437 115.705 4.26994 116.106 4.22846ZM116.396 15.3691C116.501 15.3755 116.674 15.7029 116.964 16.304C117.484 17.3856 117.472 17.9608 116.922 18.5141C116.351 19.0841 116.191 18.7367 116.221 17.0512C116.244 16.0131 116.259 15.484 116.362 15.3848C116.377 15.3697 116.381 15.3691 116.396 15.3691ZM118.409 17.2936C118.432 17.2938 118.462 17.2966 118.492 17.3012C118.569 17.3164 118.651 17.3466 118.739 17.3988C119.092 17.6168 119.381 17.9242 119.381 18.0794C119.381 18.2345 119.091 18.3572 118.739 18.3572C118.386 18.3572 118.096 18.0536 118.096 17.6804C118.096 17.4707 118.192 17.3368 118.335 17.3012C118.358 17.2952 118.379 17.2936 118.409 17.2936ZM116.729 19.8011C117.349 19.8465 118.067 21.6517 118.088 23.3255C118.096 24.1226 116.074 24.4546 115.385 23.7676C114.845 23.2278 115.818 20.0794 116.608 19.8168C116.645 19.8016 116.688 19.8011 116.729 19.8011ZM113.838 21.8C113.899 21.8075 113.969 21.9098 114.046 22.1013C114.228 22.5638 114.209 23.1208 113.993 23.3335C113.779 23.5462 113.626 23.1639 113.656 22.4886C113.671 22.1146 113.717 21.8922 113.781 21.8233C113.796 21.8081 113.823 21.8 113.838 21.8ZM116.541 25.7468C118.136 25.7468 118.453 26.0276 118.633 27.601C118.753 28.6535 118.475 29.6883 117.99 29.9949C115.613 31.4994 113.47 30.1872 114.151 27.644C114.567 26.0892 115.001 25.7468 116.541 25.7468ZM109.623 27.7535C110.181 27.7496 110.688 27.9753 110.974 28.4847C111.357 29.1675 111.207 30.0299 110.524 31.0704C109.555 32.5462 109.581 32.6991 110.983 33.832C111.798 34.4914 112.952 35.0329 113.548 35.0329C114.145 35.0329 114.906 35.2979 115.241 35.6234C116.04 36.3979 120.717 34.781 121.748 33.3741C122.176 32.7889 122.369 31.5172 122.174 30.546C121.973 29.5391 122.137 28.583 122.554 28.3242C123.557 27.705 125.159 29.1441 125.159 30.6633C125.159 31.3703 125.448 31.7225 125.833 31.4848C126.282 31.2077 126.172 30.5491 125.5 29.525C124.275 27.6566 125.146 27.4791 126.766 29.2669C127.755 30.3585 127.813 30.8082 127.149 32.2593C126.441 33.8121 126.466 33.8866 127.424 33.0926C128.148 32.4916 128.362 31.6493 128.109 30.3896C127.884 29.2666 127.987 28.711 128.375 28.9501C128.723 29.1643 129.012 29.8252 129.017 30.4209C129.025 31.2732 129.148 31.3206 129.581 30.6358C129.969 30.0242 130.26 29.9803 130.572 30.4829C132.26 33.2103 126.539 36.18 118.158 36.9256C113.067 37.3782 112.939 37.4206 116.493 37.4963C121.233 37.5939 127.318 36.2219 129.569 34.5508C130.496 33.8627 131.346 32.5358 131.458 31.6013C131.703 29.5485 132.708 29.3874 133.412 31.2888C133.838 32.4396 133.992 32.5003 134.321 31.6445C134.633 30.8353 135.125 30.7306 136.625 31.1593C138.718 31.7588 147.873 36.4488 149.783 37.8991C151.442 39.158 150.726 41.6124 148.169 43.4304C145.572 45.2773 139.391 47.8121 137.443 47.8348C136.305 47.85 136.031 48.1089 136.335 48.8989C136.665 49.7565 136.568 49.8125 135.81 49.1843C135.096 48.5938 133.104 48.5809 127.18 49.1236C118.734 49.8994 117.686 49.8806 107.828 48.7406C94.2268 47.1675 85.5211 44.234 82.9878 40.3734C81.665 38.3576 81.7581 38.275 89.812 34.1539C96.9903 30.4807 98.1923 30.1189 98.2226 31.627C98.2378 32.5592 98.4288 32.4715 99.1628 31.1886C100.05 29.6404 100.08 29.6326 100.103 30.9888C100.118 31.7611 100.444 32.5898 100.835 32.8313C101.308 33.1228 101.411 32.8358 101.137 31.9746C100.875 31.148 101.139 30.2681 101.869 29.5376C102.968 28.4397 103.032 28.4678 103.42 30.2689C103.693 31.53 103.844 31.719 103.899 30.8359C103.976 29.4947 105.106 27.9803 106.03 27.9803C106.312 27.9803 106.564 28.6267 106.586 29.4198C106.624 30.8484 106.632 30.8545 107.174 29.5136C107.619 28.4129 108.693 27.7598 109.623 27.7535ZM120.345 27.9843C120.919 27.9843 121.206 28.275 120.987 28.6255C120.769 28.9782 120.48 29.2628 120.345 29.2628C120.21 29.2628 119.92 28.9782 119.702 28.6255C119.484 28.2728 119.77 27.9843 120.345 27.9843ZM116.102 31.192C118.914 31.192 119.66 31.6864 118.656 32.8936C117.825 33.8938 113.868 34.0554 113.286 33.1123C112.559 31.9383 113.654 31.192 116.102 31.192ZM137.617 32.8349C137.188 32.8652 136.637 33.2544 135.865 34.0241C134.446 35.4386 134.389 35.6371 135.45 35.4753C136.126 35.3724 136.86 35.1082 137.08 34.8887C137.3 34.6714 137.954 34.6442 138.537 34.8281C139.449 35.1173 139.463 35.0674 138.635 34.4724C138.105 34.0916 137.947 33.7775 138.282 33.7722C138.618 33.7669 138.582 33.4528 138.2 33.072C138.076 32.9486 137.942 32.8707 137.793 32.845C137.74 32.8374 137.678 32.8273 137.617 32.8349ZM95.332 33.0969C95.3016 33.1025 95.2789 33.1195 95.2494 33.1423C95.1811 33.2104 95.1303 33.3421 95.0886 33.5374C94.9006 34.4117 94.7551 34.4374 94.2346 33.694C93.7585 33.0173 93.6645 33.0097 93.8351 33.6486C93.9594 34.1157 94.2922 34.3966 94.5712 34.2823C94.8517 34.168 95.3655 34.5804 95.7111 35.1975C96.0568 35.8144 96.5987 36.3202 96.9178 36.3202C97.237 36.3202 97.0057 35.4551 96.4046 34.3995C95.9482 33.5981 95.6402 33.1777 95.4291 33.1009C95.3912 33.0933 95.3615 33.0857 95.332 33.0969ZM106.328 33.4019C106.29 33.4049 106.26 33.417 106.23 33.4245C106.123 33.47 106.118 33.5873 106.23 33.769C106.446 34.1172 106.893 34.4026 107.225 34.4026C108.149 34.4026 107.946 33.9447 106.833 33.5186C106.69 33.4656 106.567 33.4284 106.465 33.4125C106.412 33.405 106.368 33.4019 106.328 33.4019ZM103.762 34.0431C103.724 34.0461 103.694 34.0581 103.664 34.0657C103.557 34.1111 103.548 34.2285 103.661 34.4101C103.876 34.7583 104.324 35.0437 104.656 35.0437C105.579 35.0437 105.376 34.5858 104.264 34.1597C104.12 34.1067 103.996 34.0696 103.895 34.0545C103.842 34.0469 103.801 34.0431 103.762 34.0431ZM124.172 34.4775C123.845 34.4775 123.15 34.6622 122.268 35.0407C121.422 35.404 121.313 35.6046 121.947 35.6273C122.477 35.65 123.345 35.3821 123.874 35.0407C124.461 34.6622 124.499 34.4775 124.172 34.4775ZM90.0591 35.1073C90.0515 35.1078 90.044 35.1094 90.0364 35.1149C89.9833 35.1679 90.0515 35.4169 90.2244 35.8738C90.4654 36.5059 90.8255 36.8615 91.0235 36.6639C91.2214 36.4664 91.0239 35.9486 90.5846 35.5139C90.3465 35.2785 90.1866 35.1422 90.0986 35.1111C90.0835 35.1073 90.0742 35.1069 90.0591 35.1073ZM129.935 35.7061C129.561 35.6985 128.693 36.1073 128.007 36.6254C127.322 37.1431 127.069 37.5799 127.443 37.5875C127.817 37.5951 128.681 37.1864 129.367 36.6683C130.052 36.1506 130.309 35.7136 129.935 35.7061ZM143.685 36.0656C143.67 36.0636 143.654 36.0657 143.632 36.0695C143.34 36.13 142.514 36.7909 141.646 37.6812C140.652 38.6984 140.098 39.5313 140.412 39.5313C141.116 39.5313 144.095 36.4264 143.722 36.0812C143.714 36.0737 143.7 36.0656 143.685 36.0656ZM144.813 36.9653C144.702 36.9653 144.153 37.4709 143.595 38.088C142.655 39.1253 142.693 39.2173 144.096 39.3005C144.933 39.3535 145.785 38.9501 145.992 38.4087C146.319 37.5583 146.222 37.5466 145.271 38.3186C144.305 39.1035 144.223 39.0758 144.594 38.0878C144.829 37.4708 144.924 36.9653 144.813 36.9653ZM108.138 37.822C107.953 37.8267 107.829 37.9644 107.829 38.2096C107.829 38.5828 108.118 38.89 108.471 38.89C108.824 38.89 109.114 38.7636 109.114 38.6084C109.114 38.4525 108.823 38.146 108.471 37.928C108.382 37.875 108.297 37.8432 108.22 37.8303C108.19 37.8255 108.168 37.822 108.138 37.822ZM92.8679 38.2603C92.4093 38.2664 92.4896 38.5169 93.068 38.89C94.3014 39.6858 94.5205 39.6858 94.0278 38.89C93.8094 38.5373 93.2883 38.255 92.8679 38.2603ZM147.955 38.4601C147.932 38.4604 147.902 38.4623 147.872 38.4676C147.795 38.4828 147.71 38.5132 147.621 38.5692C147.268 38.7872 146.979 39.2527 146.979 39.6057C146.979 39.9577 147.269 40.0705 147.621 39.8525C147.974 39.6345 148.264 39.1681 148.264 38.8158C148.264 38.5849 148.14 38.4586 147.955 38.4601ZM135.466 38.8947C134.658 38.8947 134.076 39.8967 134.588 40.4084C135.311 41.1298 136.069 40.8483 136.069 39.8567C136.069 39.3276 135.798 38.8947 135.466 38.8947ZM149.721 38.9324C149.449 38.9551 148.555 39.8164 147.735 40.8531C146.763 42.0822 146.581 42.6091 147.215 42.3669C148.275 41.9604 150.527 38.8719 149.721 38.9324ZM88.0769 40.3915C87.967 40.3925 87.845 40.3958 87.7123 40.4066C85.5288 40.533 85.5476 41.189 87.7729 42.3547C89.7382 43.3852 90.8622 43.0373 88.9756 41.9829C88.0719 41.478 87.9816 41.1909 88.5995 40.8094C88.9823 40.5732 88.8906 40.4271 88.3721 40.3946C88.2857 40.3908 88.1868 40.3904 88.0769 40.3915ZM79.4469 41.0607C79.4923 41.0577 79.5409 41.0602 79.5879 41.0682C79.9616 41.1363 80.2989 41.5579 80.9668 42.406C87.0713 50.1552 109.98 54.3635 129.97 51.4069C141.886 49.6444 147.331 47.8118 152.268 43.9081L154.885 41.8428L158.649 45.9814C165.995 54.0572 168.951 60.6132 166.48 63.3454C163.666 66.4568 151.713 71.253 139.278 74.263C132.068 76.0079 129.985 76.2293 118.739 76.4496C107.986 76.66 105.411 76.5178 100.448 75.417C88.8138 72.8425 82.4214 70.7729 75.6743 67.394C68.8574 63.9802 66.7504 62.1982 66.7504 59.8444C66.7504 56.6284 74.2747 44.6184 78.0013 41.8857C78.704 41.3702 79.107 41.081 79.4469 41.0607ZM119.612 41.5656C119.534 41.5615 119.462 41.5619 119.393 41.5695C118.978 41.63 118.739 41.9352 118.739 42.43C118.739 43.0454 119.157 43.3999 119.738 43.2788C121.132 42.9889 121.217 41.8533 119.863 41.5929C119.775 41.5778 119.691 41.5731 119.612 41.5656ZM108.432 43.3924C108.1 43.3924 107.828 43.6823 107.828 44.0335C107.828 44.3863 108.277 44.6754 108.827 44.6754C109.379 44.6754 109.653 44.3855 109.435 44.0335C109.216 43.6808 108.764 43.3924 108.432 43.3924ZM138.815 44.0615C138.508 44.0615 137.983 44.2705 137.354 44.6755C136.498 45.2281 136.498 45.3 137.354 45.3682C137.883 45.406 137.594 45.6974 136.711 46.0093C135.456 46.4521 135.719 46.518 137.922 46.3144C139.471 46.1713 141.203 45.5658 141.773 44.9687C142.735 43.9597 142.709 43.932 141.404 44.5971C139.663 45.4867 138.429 45.5219 138.956 44.6727C139.207 44.267 139.122 44.0615 138.815 44.0615ZM88.9035 46.385C88.9717 46.3794 89.0514 46.3803 89.1385 46.385C89.4873 46.4078 89.9683 46.51 90.4978 46.6939C91.5568 47.0625 92.4252 47.4794 92.4252 47.6209C92.4252 47.761 92.2077 47.8344 91.9431 47.789C89.2013 47.2917 88.5742 47.0676 88.5742 46.5842C88.5742 46.4676 88.6958 46.4017 88.9035 46.385ZM155.966 47.985C153.473 48.0001 152.115 49.7599 152.115 53.0115C152.115 55.4548 153.074 57.2215 156.217 60.569C157.839 62.2971 158.606 62.6486 160.432 62.4935C165.173 62.0908 165.382 56.8459 160.894 50.9539C159.205 48.7365 158.348 48.1659 156.479 48.0084C156.303 47.9933 156.132 47.985 155.966 47.985ZM78.7299 47.9889C77.5856 48.0192 76.1369 48.6785 74.456 50.195C72.0896 52.33 70.8955 54.3341 72.6266 53.2658C73.0898 52.9804 73.1951 53.0916 72.9048 53.5594C72.6493 53.9689 72.2142 54.1688 71.9372 53.9977C71.1704 53.5246 69.9589 56.6371 69.9589 59.0868C69.9589 60.6146 70.391 61.5705 71.4044 62.2866C73.352 63.6621 75.656 63.0421 77.8015 60.5655C82.8614 54.725 82.4847 48.174 78.9533 47.9932C78.8775 47.9894 78.8057 47.9871 78.7299 47.9889ZM156.734 48.9903C157.685 49.013 158.618 49.471 159.284 50.3555C159.949 51.2404 159.931 51.2798 159.174 50.606C157.762 49.3485 156.089 49.6619 154.951 51.3963C153.663 53.359 154.462 56.2079 157.059 58.9145C157.995 59.8901 158.614 60.8309 158.437 61.0073C157.961 61.4827 154.981 58.1199 153.791 55.7655C152.432 53.0748 152.486 52.0499 154.073 50.2267C154.813 49.3771 155.782 48.9664 156.734 48.9903ZM79.1373 49.1704C80.0718 49.0947 80.8727 50.247 80.8727 52.0299C80.8727 53.2747 80.6173 54.2909 80.3087 54.2909C79.9994 54.2909 79.5764 55.1579 79.3646 56.2154C79.1531 57.2729 78.68 58.1361 78.3187 58.1361C77.5039 58.1361 77.5035 57.9975 78.3415 55.8007C79.3556 53.1375 78.622 51.0872 76.653 51.0872C75.6603 51.0872 75.1889 50.8199 75.4465 50.4028C75.6792 50.0266 76.2373 49.8585 76.6883 50.0311C77.1394 50.2037 77.8125 50.0463 78.1848 49.6709C78.5016 49.3545 78.8258 49.1939 79.1373 49.1704ZM121.269 50.4457C121.601 50.4457 122.05 50.7348 122.268 51.0875C122.486 51.4403 122.215 51.7287 121.665 51.7287C121.114 51.7287 120.666 51.4388 120.666 51.0875C120.666 50.7348 120.937 50.4457 121.269 50.4457ZM93.2635 51.1617C91.936 51.1844 91.2168 51.6212 89.7104 52.9416C86.8095 55.4849 85.3627 58.5435 85.3778 62.0793C85.393 65.3707 86.8402 67.5463 89.5499 68.3536C92.9559 69.3685 94.2931 69.0789 96.8401 66.7812C100.048 63.8868 101.008 61.5112 100.617 57.436C100.223 53.3488 98.6791 51.6988 94.8463 51.2674C94.2171 51.1992 93.706 51.1549 93.2635 51.1617ZM67.3458 51.2556C67.4542 51.2617 67.5399 51.2783 67.6005 51.301C68.0144 51.4539 67.6309 51.756 66.7505 51.9702C65.8681 52.1844 60.8909 53.3813 55.6916 54.63C46.1813 56.9143 30.9881 61.6507 29.9072 62.6687C29.3296 63.2129 35.2823 61.5103 38.686 60.1573C39.666 59.7675 41.1094 59.3213 41.8944 59.1677C42.6795 59.014 44.6113 58.4251 46.1879 57.8573C47.8482 57.26 49.8191 56.9931 50.8693 57.2236C51.9246 57.4553 53.0742 57.2994 53.6193 56.8444C54.134 56.4183 54.5556 56.2843 54.5556 56.547C54.5556 56.8097 54.9505 56.696 55.433 56.2964C56.1009 55.7438 56.505 55.8013 57.1175 56.5386C58.1991 57.8398 59.0488 57.7621 59.0488 56.3622C59.0488 55.4028 59.6666 55.1991 62.8761 55.1105L66.7074 55.0046L65.3638 58.3374C63.2257 63.653 63.2228 63.5968 66.1277 66.4973C70.4413 70.8048 84.7351 76.8264 95.1637 78.7292C97.5543 79.1652 99.2472 79.6888 98.9243 79.8909C98.6013 80.093 100.258 80.3156 102.603 80.3913C104.947 80.467 110.603 80.7947 115.17 81.1225C119.872 81.4571 123.906 81.4744 124.474 81.1603C125.025 80.8552 129.846 79.8911 135.184 79.0206C147.845 76.9561 159.928 73.112 165.783 69.2804C168.182 67.7103 170.321 65.9689 170.535 65.4118C170.749 64.8546 170.474 62.9897 169.92 61.2692C169.074 58.6256 169.058 58.1399 169.822 58.1399C170.319 58.1399 170.654 58.4942 170.567 58.9261C170.479 59.3584 171.057 59.8142 171.852 59.9353C173.032 60.1155 173.293 60.5644 173.293 62.3959C173.293 65.0271 172.393 67.004 170.492 68.5412C169.738 69.1506 169.435 69.6562 169.815 69.6638C170.846 69.6865 173.109 67.0568 173.936 64.8798C174.717 62.8215 174.274 58.7814 173.265 58.7814C172.929 58.7814 172.655 58.5392 172.655 58.2455C172.655 57.9518 173.302 57.786 174.096 57.8738C174.891 57.9624 175.542 58.079 175.542 58.1319C175.542 58.1849 176.048 58.3387 176.666 58.4567C177.284 58.5748 177.786 58.3885 177.786 58.0419C177.786 57.6997 178.082 57.6059 178.441 57.8269C178.801 58.0479 178.969 58.4294 178.817 58.6757C178.664 58.9218 179.237 59.4512 180.09 59.8532C181.358 60.4504 181.641 60.4148 181.641 59.6419C181.641 58.9569 182.035 58.8193 183.083 59.1454C183.877 59.3921 184.622 59.8448 184.74 60.1507C184.857 60.4565 185.529 60.7101 186.228 60.7101C186.928 60.7101 188.06 61.0023 188.743 61.3672C189.683 61.8691 189.985 61.8289 189.985 61.1794C189.985 60.1635 181.933 57.429 178.405 57.2481C177.077 57.18 175.598 56.8167 175.122 56.4384C174.646 56.06 173.103 55.5216 171.691 55.2415C170.279 54.9614 169.594 54.6146 170.171 54.4786C172.137 54.0138 190.533 59.1537 199.61 62.701C204.738 64.7048 212.365 68.785 215.013 70.9469C216.321 72.0139 216.38 72.179 215.335 71.827C214.181 71.4387 214.208 71.5705 215.601 73.0984C216.566 74.1557 217.152 75.5773 217.152 76.8576C217.152 79.7763 211.194 85.0262 204.914 87.6421C195.402 91.6045 173.197 96.5911 160.894 97.527C158.486 97.7102 156.269 98.0167 155.966 98.2037C155.663 98.3914 155.228 98.2491 155.002 97.8789C154.777 97.5156 154.332 97.3763 154.011 97.5739C153.691 97.7722 152.628 98.0553 151.649 98.1999C150.67 98.3445 148.134 98.7487 146.016 99.0957C143.898 99.4424 138.124 100.021 133.182 100.383C121.768 101.218 107.532 101.69 104.62 101.329C103.385 101.176 99.4039 100.628 95.7749 100.109C87.9888 98.9957 86.8083 98.9429 87.6423 99.7606C87.9774 100.09 89.4074 100.472 90.8193 100.613C93.2223 100.853 93.1802 100.874 90.1772 100.965C80.8773 101.248 50.8114 95.1111 41.2368 90.9748C29.9974 86.1194 19.4751 79.0419 16.6276 74.4245C15.4198 72.4655 15.4227 72.4289 16.6882 71.2834C17.9393 70.154 17.9729 70.1623 17.9654 71.6626C17.9578 72.8926 17.8273 73.0128 17.3308 72.2454C16.9881 71.717 16.704 71.568 16.704 71.9207C16.704 72.777 17.6871 74.285 18.2003 74.2169C18.4254 74.1866 18.6445 74.3788 18.6824 74.643C18.7506 75.1396 21.6415 77.9721 24.4528 80.2954C25.3347 81.0243 26.4062 81.5049 26.8307 81.3633C27.2552 81.2225 27.6025 81.4164 27.6025 81.8017C27.6025 82.1832 28.2392 82.498 29.0206 82.498C30.0081 82.498 29.0812 81.6695 25.9727 79.7755C20.9472 76.7125 18.2835 72.8425 19.0585 69.7341C19.4314 68.2378 19.3647 68.1651 18.3846 68.9713C17.788 69.4634 17.1491 69.7132 16.9664 69.5307C16.0649 68.6305 22.0459 64.9015 29.2044 61.899C37.3194 58.4953 62.2691 51.5333 66.9488 51.2592C67.1027 51.2518 67.2382 51.2519 67.3458 51.2556ZM94.1489 52.3704C97.4581 52.3704 99.2198 53.8363 99.8331 57.0997C100.38 60.011 99.0948 63.8422 97.3338 64.5515C96.5729 64.8573 96.2155 65.1231 96.5346 65.1458C96.8545 65.1685 96.5952 65.7634 95.9546 66.4679C94.0785 68.5376 90.2578 68.2076 87.8651 65.7639C86.1156 63.9766 85.9596 63.5015 86.353 61.1169C86.9982 57.2073 88.0528 55.8573 87.5518 59.5835C86.8323 64.93 90.74 68.5565 94.0979 65.6584C96.2622 63.7903 97.5607 61.2393 97.5607 58.8402C97.5607 55.1596 93.1077 52.9971 90.1412 55.2376C87.9815 56.8686 87.617 56.2972 89.5377 54.2948C91.0291 52.7408 91.911 52.3704 94.1489 52.3704ZM141.558 53.5752C139.842 53.5979 138.117 53.9628 137.053 54.6588C135.191 55.8767 133.846 60.0086 134.404 62.7952C134.937 65.4543 137.217 68.3917 139.532 69.3981C143.062 70.9326 145.58 70.5568 148.006 68.1346C149.785 66.3584 150.188 65.4664 150.188 63.3037C150.188 60.1214 148.216 55.991 146 54.5414C144.978 53.873 143.273 53.5526 141.558 53.5752ZM97.2279 53.869C97.043 53.8746 96.9186 54.0121 96.9186 54.2566C96.9186 54.6298 97.2075 54.9333 97.5607 54.9333C97.914 54.9333 98.2036 54.8069 98.2036 54.6517C98.2036 54.4958 97.9132 54.1892 97.5607 53.9712C97.472 53.9182 97.3864 53.8864 97.3098 53.8736C97.2795 53.8688 97.2567 53.8682 97.2279 53.869ZM141.142 54.933C141.305 54.9316 141.468 54.9355 141.636 54.9481C142.644 54.9935 143.734 55.1994 144.691 55.562C148.672 57.0732 150.425 64.8242 147.422 67.6413C144.468 70.4119 138 68.8148 136.367 64.9111C135.218 62.1682 135.205 60.2246 136.321 58.2142C137.35 56.3611 138.24 57.3902 137.457 59.5285C136.277 62.7532 138.679 67.076 141.771 67.2932C142.87 67.3704 143.772 67.7133 143.772 68.056C143.773 68.3989 144.641 67.7351 145.7 66.5774C149.327 62.6117 147.82 57.7451 142.491 56.2192C140.75 55.7204 140.215 55.8089 139.553 56.712C138.625 57.9792 137.649 57.4054 138.217 55.9257C138.436 55.3565 139.417 55.0216 140.662 54.9517C140.816 54.9441 140.979 54.933 141.142 54.933ZM91.5125 55.5741C92.2501 55.5741 92.0651 56.126 90.7763 57.8156C88.3577 60.9823 87.8132 60.8249 89.5542 57.4635C90.0924 56.4235 90.9742 55.5741 91.5125 55.5741ZM162.653 55.7073C162.861 55.7104 163.121 56.641 163.166 58.1679C163.204 59.5062 162.803 60.5609 162.042 61.1172C159.938 62.6541 158.662 62.0966 160.62 60.495C161.802 59.5285 162.382 58.4411 162.382 57.2053C162.382 56.2622 162.486 55.7967 162.614 55.7189C162.629 55.7113 162.638 55.7073 162.653 55.7073ZM116.114 55.7603C115.817 55.7637 115.532 55.7906 115.26 55.8428C112.132 56.4287 108.961 58.7682 107.633 61.4717C105.602 65.6058 107.83 70.786 112.565 72.9331C115.828 74.4127 116.743 74.4339 120.059 73.1095C125.113 71.0901 127.282 64.8472 124.493 60.3416C122.978 57.8935 119.261 55.869 116.415 55.7648C116.314 55.761 116.213 55.7592 116.114 55.7603ZM118.249 57.5011C118.589 57.5032 119.047 57.7197 119.832 58.1542C122.119 59.4206 124.517 62.9947 124.517 65.1406C124.517 67.5885 122.926 69.484 119.357 71.2897C117.629 72.1647 115.991 72.8793 115.714 72.878C114.669 72.873 111.191 70.3923 109.858 68.7003C108.287 66.7062 107.964 62.2158 109.274 60.5991C111.446 57.9184 115.681 56.5533 116.392 58.3029C116.637 58.9054 116.884 58.8654 117.391 58.1425C117.69 57.7148 117.91 57.4988 118.249 57.5011ZM62.171 58.7919C62.1028 58.7872 61.8488 59.0939 61.3484 59.7072C60.0214 61.333 60.0576 64.2103 61.4348 66.537C62.0405 67.5607 62.7529 68.399 63.0175 68.399C63.2828 68.399 62.8969 67.3837 62.1634 66.142C60.8961 63.9965 60.8477 62.7304 61.9087 59.7463C62.1331 59.1143 62.2423 58.7967 62.171 58.7919ZM139.74 58.9168C139.755 58.9187 139.77 58.9244 139.778 58.9319C139.872 59.0001 139.907 59.3187 139.911 59.902C139.917 60.6953 139.63 61.3455 139.277 61.3455C138.473 61.3455 138.473 60.6635 139.277 59.421C139.465 59.1295 139.6 58.9606 139.696 58.9243C139.711 58.9167 139.725 58.9168 139.74 58.9168ZM77.2021 58.9773C77.3431 58.9697 77.4431 58.9849 77.4916 59.0378C78.1042 59.6502 76.213 61.4164 75.3137 61.072C74.8406 60.8911 74.4518 61.0265 74.4518 61.3656C74.4518 61.707 74.094 61.9629 73.6526 61.9326C72.2811 61.8463 71.2434 61.2672 71.2434 60.583C71.2434 60.222 71.6945 60.0941 72.2463 60.3053C72.7981 60.5164 74.1269 60.2371 75.1961 59.6914C75.9982 59.2773 76.7794 59.0046 77.2021 58.9773ZM112.471 59.1068C112.09 59.1055 111.944 59.1447 112.165 59.2241C112.75 59.4444 112.611 59.9814 111.664 61.1839C110.722 62.3795 110.411 63.6027 110.54 65.565C110.638 67.0613 110.814 68.1897 110.932 68.0724C111.049 67.9551 111.696 68.4092 112.373 69.0856C113.05 69.7615 114.037 70.3138 114.567 70.3138C115.096 70.3138 115.531 70.6029 115.531 70.9557C115.531 71.3084 115.82 71.5968 116.174 71.5968C116.527 71.5968 116.816 71.3069 116.816 70.9557C116.816 70.6029 117.261 70.3138 117.807 70.3138C119.775 70.3138 121.948 67.3271 121.948 64.6223C121.948 61.8711 120.797 60.2345 118.535 59.7796C116.855 59.4412 113.613 59.1106 112.471 59.1068ZM140.888 59.1371C140.895 59.1322 140.91 59.1364 140.926 59.1522C140.956 59.1976 140.994 59.343 141.027 59.5867C141.176 60.5609 141.172 62.0022 141.02 62.7904C140.867 63.5787 140.748 62.7848 140.753 61.0223C140.756 59.8657 140.811 59.1897 140.888 59.1371ZM58.7471 60.471C58.7395 60.4708 58.7244 60.476 58.7168 60.4861C58.6084 60.5543 58.4621 60.9328 58.243 61.5697C57.8177 62.8081 57.8443 63.8929 58.3211 64.9376C58.7077 65.7841 59.103 66.4747 59.1985 66.475C59.294 66.4752 59.2591 64.9617 59.1204 63.1108C58.9839 61.276 58.9048 60.4743 58.7471 60.471ZM116.929 60.7019C117.231 60.7019 116.757 62.1211 115.875 63.8586C114.421 66.7233 112.964 68.4944 112.964 67.3947C112.964 66.5032 116.401 60.7019 116.929 60.7019ZM175.866 60.7058C175.493 60.7058 175.471 61.2757 175.813 62.1726C176.184 63.1458 176.07 64.3617 175.477 65.7714C174.983 66.9422 174.58 68.0283 174.58 68.185C174.58 69.0133 175.802 67.5286 176.495 65.8575C177.323 63.8608 176.938 60.7058 175.866 60.7058ZM56.1498 61.2418C56.0551 61.2493 55.9892 61.7595 55.9892 62.6265C55.9892 63.8601 56.1218 64.366 56.2833 63.7491C56.4448 63.1322 56.4448 62.1208 56.2833 61.5038C56.2454 61.3494 56.2045 61.2661 56.1696 61.2457C56.163 61.2419 56.1574 61.2411 56.1498 61.2418ZM193.42 61.4294C193.176 61.4522 193.193 61.6376 193.193 61.9343C193.193 62.5225 201.426 65.5732 202.336 65.3219C202.601 65.2462 202.818 65.4589 202.818 65.7874C202.818 66.1167 203.469 66.5809 204.264 66.8201C205.058 67.0593 207.052 68.0679 208.694 69.0616C210.337 70.0554 211.853 70.6959 212.063 70.4855C212.274 70.275 212.447 70.4401 212.447 70.8534C212.447 71.2644 212.953 71.5884 213.571 71.5808C214.602 71.5657 214.596 71.4853 213.485 70.6458C211.359 69.0386 202.644 64.7123 198.089 63.0024C194.957 61.8264 193.827 61.3946 193.42 61.4294ZM53.8778 61.985C53.5041 61.985 53.3736 62.2696 53.592 62.6224C53.8103 62.9751 54.1181 63.2635 54.2735 63.2635C54.4289 63.2635 54.5555 62.9736 54.5555 62.6224C54.5555 62.2696 54.2515 61.985 53.8778 61.985ZM178.871 63.3737C178.863 63.3763 178.856 63.3813 178.848 63.3888C178.697 63.5031 178.474 64.1755 178.178 65.4033C177.892 66.5946 177.971 67.0779 178.409 66.8076C178.777 66.5813 179.076 65.6457 179.076 64.7266C179.076 63.8477 179.023 63.3961 178.904 63.3731C178.896 63.3715 178.886 63.3711 178.871 63.3737ZM36.8291 63.8741C36.7988 63.8733 36.761 63.8762 36.7314 63.8816C36.4668 63.927 36.1757 64.1685 36.0377 64.5818C35.896 65.0041 36.1311 65.235 36.5549 65.0943C36.9779 64.9535 37.2986 64.6303 37.2759 64.3744C37.2455 64.0391 37.0535 63.8786 36.8291 63.8741ZM26.6047 63.9497C26.2696 63.9724 25.5273 64.2782 24.3601 64.8807C23.3185 65.4181 22.464 66.176 22.464 66.5628C22.464 67.0563 22.7232 67.054 23.3454 66.5325C23.8305 66.1305 24.7708 66.0003 25.4334 66.2388C26.0936 66.4772 26.4239 66.4371 26.1619 66.1487C25.8996 65.8603 26.0072 65.2371 26.4006 64.764C26.8683 64.2016 26.9397 63.9304 26.6047 63.9497ZM190.623 64.5447C190.27 64.5447 189.98 64.8339 189.98 65.1858C189.98 65.5386 190.271 65.8278 190.623 65.8278C190.977 65.8278 191.265 65.5378 191.265 65.1858C191.265 64.8331 190.975 64.5447 190.623 64.5447ZM179.948 64.7718C179.926 64.7681 179.91 64.7769 179.895 64.7945C179.827 64.8626 179.78 65.0859 179.766 65.4591C179.735 66.1343 179.885 66.5128 180.098 66.3001C180.314 66.0874 180.334 65.5343 180.151 65.0718C180.076 64.8834 180.006 64.7824 179.948 64.7718ZM52.7691 67.866C52.6728 67.8646 52.5751 67.8661 52.4712 67.8699C51.095 67.9229 49.142 68.4226 48.5147 69.0942C47.9893 69.6574 48.2902 69.7226 49.7407 69.3796C50.7986 69.1299 51.5228 69.0579 51.3469 69.2229C50.6919 69.8376 32.6723 77.3548 31.9166 77.332C30.7338 77.2942 34.9801 75.1212 40.7581 72.8101C45.8788 70.7619 48.7403 69.0778 45.5687 69.9818C43.0237 70.7069 32.4657 75.378 30.9136 76.4636C30.1383 77.0056 29.6684 77.7154 29.8716 78.0439C30.4363 78.9557 30.9535 78.8298 37.6946 76.131C47.5941 72.1678 53.9128 69.1239 53.9128 68.3193C53.9128 68.0135 53.44 67.8751 52.7691 67.866ZM20.85 67.9637C20.665 67.9686 20.5407 68.1067 20.5407 68.3512C20.5407 68.7251 20.8311 69.0318 21.1836 69.0318C21.5368 69.0318 21.8257 68.9015 21.8257 68.7463C21.8257 68.5904 21.5353 68.2876 21.1836 68.0696C21.0949 68.0166 21.0093 67.9849 20.9327 67.972C20.9024 67.9672 20.8795 67.9637 20.85 67.9637ZM20.2079 69.8923C20.0229 69.9074 19.8986 70.0541 19.8986 70.3145C19.8986 71.5307 21.2399 73.7354 23.3107 75.92C24.3966 77.0656 25.5783 78.001 25.9354 78.001C26.2924 78.001 25.3684 76.7665 23.8827 75.2551C22.3971 73.7436 21.1836 72.0279 21.1836 71.4451C21.1836 70.8622 20.8932 70.208 20.5407 69.99C20.452 69.937 20.3671 69.9067 20.2898 69.8961C20.2595 69.8923 20.2367 69.8904 20.2079 69.8923ZM180.83 70.1147C180.672 70.1171 180.519 70.1223 180.371 70.1298C179.59 70.1601 179 70.2495 178.812 70.4077C178.494 70.6765 178.928 71.1927 179.776 71.5538C181.35 72.2237 194.522 75.1752 198.004 75.6377C199.063 75.7785 200.094 75.9367 200.292 75.9897C200.489 76.0427 201.19 75.6937 201.851 75.2113C203.021 74.3566 203.017 74.3158 201.813 73.6739C200.241 72.838 189.313 70.7749 188.858 71.2291C188.392 71.6946 189.581 72.0307 194.628 72.8525C197.006 73.2393 199.603 73.8186 200.402 74.1395C203.569 75.4099 196.645 74.7883 189.34 73.146C181.682 71.4251 179.328 70.5303 184.047 71.1314C185.547 71.3229 186.774 71.2456 186.774 70.9595C186.774 70.5106 183.668 70.1404 181.321 70.1184C181.153 70.1168 180.989 70.1124 180.83 70.1147ZM22.7386 70.6977C22.6779 70.7052 22.6362 70.7582 22.6089 70.8346C22.4626 71.2737 22.8288 72.3711 23.4199 73.2715C24.9095 75.5412 25.2675 74.8238 23.9566 72.1998C23.5108 71.3075 23.061 70.7411 22.8009 70.6977C22.7782 70.6939 22.7537 70.6939 22.7386 70.6977ZM211.59 71.8868C211.575 71.8869 211.559 71.8943 211.544 71.917C211.412 72.0828 211.197 72.9088 210.851 74.4597C210.616 75.5076 209.222 77.4905 207.748 78.8681C206.274 80.2456 205.678 81.0568 206.424 80.6715C209.05 79.3146 211.809 75.518 211.755 73.3331C211.725 72.3825 211.686 71.8856 211.59 71.8868ZM5.45104 71.9647C5.38281 71.9723 5.29023 72.0624 5.17273 72.235C4.15306 73.7239 4.36816 78.8213 5.52148 80.4652C6.95863 82.5138 7.27356 81.8305 6.03472 79.3505C5.29333 77.8658 5.11713 76.4392 5.41611 74.2808C5.63822 72.6718 5.65572 71.94 5.45104 71.9647ZM72.2586 73.0484C72.1813 73.0493 72.1298 73.0634 72.1055 73.0861C71.9319 73.2595 72.8219 73.7727 74.0838 74.2284C75.3458 74.684 76.3795 75.4329 76.3795 75.8909C76.3795 76.3489 76.6835 76.724 77.0572 76.724C77.4309 76.724 77.5606 76.4334 77.343 76.0829C77.08 75.6582 77.5128 75.6582 78.6318 76.0829C80.7124 76.8724 81.9984 76.9248 81.1586 76.1844C80.3627 75.4835 74.31 73.3549 72.5637 73.0785C72.4394 73.0634 72.336 73.0484 72.2586 73.0484ZM213.803 73.1967L212.828 74.7965C211.651 76.7263 211.538 77.6015 212.546 76.9793C213.009 76.6939 213.114 76.8044 212.824 77.2722C212.568 77.6832 212.122 77.8763 211.833 77.6984C211.544 77.5205 210.917 77.846 210.438 78.422C209.664 79.3539 209.737 79.4182 211.089 78.9891C211.924 78.7241 212.995 78.4509 213.47 78.3828C213.946 78.3147 214.562 78.0081 214.838 77.706C215.113 77.401 214.928 77.3896 214.426 77.6833C213.741 78.0799 213.618 77.9384 213.936 77.1126C214.196 76.4351 214.104 76.17 213.697 76.4199C213.274 76.6811 213.177 76.1777 213.423 75.0117L213.803 73.1967ZM2.93599 73.3572C2.83895 73.3523 2.70319 73.6237 2.50534 74.12C2.16193 74.9799 2.05579 76.4933 2.27411 77.484C2.87829 80.2318 3.21675 79.6438 3.17126 75.9193C3.14852 74.1391 3.09518 73.3655 2.93599 73.3572ZM13.6971 74.3078C13.9586 74.323 14.1201 74.3684 14.1201 74.4448C14.1201 74.6007 13.3734 75.5329 12.4591 76.518L10.7982 78.3097L11.0135 76.4514C11.1719 75.1 11.6283 74.5318 12.6785 74.3744C13.0757 74.3138 13.4352 74.3003 13.6971 74.3078ZM61.9284 74.4054C61.8905 74.4057 61.8602 74.408 61.8269 74.413C61.7352 74.4282 61.6442 74.4584 61.5608 74.5106C61.2265 74.7173 61.1227 75.1586 61.3296 75.4925C61.5366 75.8264 61.9786 75.9301 62.3129 75.7234C62.6473 75.5168 62.7548 75.0755 62.5479 74.7417C62.4122 74.5221 62.1703 74.4032 61.9284 74.4054ZM0.832375 74.4282C0.809633 74.4267 0.79439 74.4265 0.771648 74.4321C0.733744 74.4397 0.686063 74.4624 0.642095 74.4926C0.288835 74.7106 0 75.3029 0 75.8109C0 76.3188 0.289594 76.734 0.642095 76.734C0.995355 76.734 1.28407 76.142 1.28407 75.4157C1.28407 74.8715 1.11881 74.5007 0.888361 74.4418C0.865619 74.438 0.855117 74.4294 0.832375 74.4282ZM158.278 74.4508C157.141 74.466 150.064 76.6308 149.577 77.1538C149.384 77.359 149.876 77.3264 150.67 77.0857C151.53 76.8215 152.115 76.9138 152.115 77.3128C152.115 77.7624 152.643 77.7482 153.722 77.2562C154.604 76.855 155.324 76.3166 155.324 76.0592C155.324 75.8018 156.08 75.3991 157.004 75.1673C157.928 74.9357 158.567 74.6276 158.422 74.483C158.4 74.4603 158.354 74.4508 158.278 74.4508ZM14.9038 75.5383C15.3412 75.561 15.3283 76.2976 14.508 77.4668C13.9425 78.2728 13.4777 79.4452 13.4777 80.072C13.4777 80.6988 13.1927 81.2142 12.8395 81.2142C11.7493 81.2142 12.1285 78.2324 13.4233 76.6375C13.9994 75.9283 14.4924 75.5862 14.8101 75.5422C14.8404 75.5374 14.878 75.5366 14.9038 75.5383ZM16.0124 77.3651C16.3633 77.3651 16.4793 77.8018 16.2746 78.3352C15.9971 79.0566 16.1973 79.1897 17.0502 78.8635C17.9879 78.5047 18.1023 78.6493 17.6884 79.6576C17.4102 80.3358 17.0222 81.4519 16.8267 82.1377C16.4742 83.3737 16.4688 83.3737 15.9844 82.1377C15.5606 81.0565 15.4894 81.0396 15.4515 82.0127C15.3908 83.5515 14.1195 83.4402 14.1195 81.8955C14.1195 80.1077 15.2664 77.3651 16.0124 77.3651ZM219.82 77.369C220.377 77.369 220.993 77.7907 221.191 78.3078C221.873 80.0808 221.11 80.4527 219.957 78.9103C218.951 77.5642 218.937 77.369 219.82 77.369ZM124.823 77.6702C125.034 77.6627 125.159 77.746 125.159 77.9209C125.159 78.2479 124.699 78.6924 124.141 78.9066C122.619 79.4894 121.947 79.3788 121.947 78.5469C121.947 78.1359 122.131 77.9799 122.355 78.2025C122.578 78.425 123.297 78.3206 123.957 77.9679C124.309 77.7794 124.611 77.6786 124.823 77.6702ZM218.563 78.9103C219.326 78.9178 220.247 81.3862 219.871 82.8807C219.658 83.7291 219.231 84.4219 218.923 84.4219C218.187 84.4219 217.605 79.7775 218.249 79.0667C218.348 78.9584 218.454 78.9088 218.563 78.9103ZM19.0366 80.0603C19.0518 80.0603 19.0593 80.0647 19.0744 80.0755C19.1502 80.1648 19.0592 80.6318 18.8705 81.5384C18.4816 83.3765 18.5066 83.4017 19.458 82.1758C20.0955 81.3552 20.6547 81.1322 21.0171 81.5384C21.3461 81.9192 21.172 82.9704 20.5822 84.1006C19.6276 85.9317 19.5245 85.9705 18.455 84.9025C17.0768 83.5257 17.0387 82.4784 18.3065 80.8578C18.6506 80.418 18.869 80.1455 18.988 80.0755C19.0032 80.0679 19.0214 80.0603 19.0366 80.0603ZM72.8032 80.6864C72.7729 80.6833 72.7425 80.6868 72.7054 80.6939C71.5681 80.9596 66.1504 86.7662 65.4895 88.5407C65.2166 89.2719 65.134 90.2321 65.3016 90.6727C65.7951 91.9674 67.2048 91.5962 68.6196 89.8003C70.5656 87.3298 73.4144 81.2472 72.8739 80.7173C72.8587 80.6946 72.826 80.6864 72.8032 80.6864ZM216.847 81.164C216.983 81.1413 217.142 81.2057 217.317 81.379C217.525 81.5865 217.572 82.2839 217.419 82.9281C217.152 84.0479 217.117 84.0434 216.639 82.9508C216.261 82.0823 216.439 81.236 216.847 81.164ZM177.461 81.469C177.423 81.4699 177.393 81.4716 177.356 81.4766C177.264 81.4918 177.177 81.522 177.093 81.5704C176.759 81.7771 176.652 82.2184 176.858 82.5523C177.065 82.8861 177.511 82.9899 177.846 82.7832C178.18 82.5766 178.284 82.139 178.077 81.8053C177.961 81.6175 177.769 81.5002 177.564 81.4729C177.526 81.4683 177.494 81.4683 177.461 81.469ZM109.333 81.6258C108.456 81.6182 107.709 81.6279 107.128 81.6447C105.964 81.6826 105.46 81.7696 105.902 81.899C107.448 82.3517 122.294 82.6249 120.988 82.1768C120.634 82.0557 116.735 81.84 112.322 81.6954C111.219 81.6576 110.211 81.6333 109.333 81.6258ZM215.018 82.6349C215.95 82.725 216.611 85.6996 215.864 86.883C214.52 89.0092 213.644 88.4729 213.85 85.6547C213.96 84.1473 214.401 82.7992 214.829 82.6584C214.89 82.6356 214.955 82.6349 215.018 82.6349ZM22.86 82.7523C23.4119 82.7296 23.5135 83.7798 23.2595 86.1789C22.9449 89.1513 22.0836 89.7147 21.2577 87.4855C20.6376 85.8115 20.9901 84.0931 22.1548 83.1278C22.4421 82.8893 22.6766 82.7606 22.86 82.7523ZM115.691 83.1511C114.158 83.1572 113.59 83.3502 114.128 83.6908C114.909 84.1859 118.096 83.9414 118.096 83.3858C118.096 83.2503 117.015 83.1458 115.691 83.1511ZM71.0717 83.189C71.0945 83.19 71.1171 83.1965 71.1399 83.2041C71.434 83.3525 70.9019 84.7139 69.334 87.1824C68.2827 88.8376 67.1289 90.1904 66.768 90.1904C65.6921 90.1904 66.0054 89.247 67.9943 86.5057C69.5089 84.4179 70.5558 83.341 70.991 83.2041C71.0213 83.1965 71.0498 83.189 71.0717 83.189ZM155.281 83.8309C154.579 83.9324 155.349 85.6282 157.682 88.7479C159.428 91.0838 161.744 91.5657 161.744 89.5929C161.744 88.9079 160.492 87.3319 158.947 86.0684C157.191 84.6313 156.016 83.9026 155.441 83.8309C155.381 83.8235 155.328 83.8242 155.281 83.8309ZM24.7599 83.9209C24.9396 83.9202 25.1239 84.0519 25.3043 84.3433C25.5037 84.665 25.2436 85.8956 24.7326 87.0776L23.7964 89.2291L23.7736 86.8626C23.7584 85.1287 24.2215 83.9232 24.7599 83.9209ZM211.186 85.7046C212.129 85.7046 212.538 88.1778 211.817 89.5226C210.717 91.5737 210.144 91.0621 210.411 88.2668C210.545 86.8569 210.894 85.7046 211.186 85.7046ZM27.0086 85.7198C27.4073 85.6895 27.6249 86.1604 27.361 87.1437C27.148 87.9368 26.9706 89.0928 26.9653 89.7097C26.96 90.3266 26.6591 90.8286 26.2952 90.8286C25.1998 90.8286 24.8154 88.9286 25.5743 87.265C26.0283 86.2691 26.6096 85.7464 27.0086 85.7198ZM157.435 85.7728C157.681 85.7879 158.233 86.314 159.429 87.5604C160.443 88.6169 160.928 89.5833 160.561 89.8096C159.926 90.2017 157.251 87.3343 157.251 86.2617C157.251 85.9415 157.289 85.7652 157.435 85.7728ZM115.781 86.1445C115.495 86.1514 115.134 87.0121 114.344 89.1213C112.797 93.2495 112.59 95.9679 113.733 97.1129C114.773 98.1522 115.852 98.0833 116.827 96.9093C117.69 95.8705 117.366 89.873 116.291 86.9697C116.096 86.4437 115.953 86.1402 115.781 86.1445ZM98.1999 86.3481C97.8467 86.3481 97.5617 86.6388 97.5617 86.9893C97.5617 87.342 97.8467 87.6311 98.1999 87.6311C98.5532 87.6311 98.8427 87.342 98.8427 86.9893C98.8427 86.6365 98.5524 86.3481 98.1999 86.3481ZM30.3344 86.9778C30.3571 86.9783 30.3723 86.9799 30.3875 86.9855C30.4701 87.0157 30.5444 87.1239 30.6066 87.3101C30.7316 87.6856 30.5838 89.1237 30.2738 90.51C29.7302 92.9392 29.6909 92.9686 29.2397 91.3276C28.8713 89.9865 29.6922 87.1391 30.2738 86.9816C30.2889 86.9779 30.3116 86.9774 30.3344 86.9778ZM208.62 87.0755C209.021 87.0815 209.233 87.6319 209.227 88.6559C209.222 89.6546 208.939 90.904 208.597 91.4331C208.106 92.1904 207.952 92.0198 207.868 90.6313C207.808 89.6619 207.734 88.5349 207.696 88.1239C207.658 87.7128 207.996 87.2537 208.437 87.1068C208.505 87.0841 208.563 87.0755 208.62 87.0755ZM28.4776 87.1853C28.4928 87.1857 28.5156 87.1874 28.5307 87.1929C28.724 87.2709 28.7126 87.7666 28.5003 88.6598C27.909 91.1153 27.6033 91.3457 27.6033 89.3365C27.6033 88.4174 27.902 87.4779 28.2696 87.2516C28.3227 87.2137 28.375 87.1985 28.4182 87.1909C28.4409 87.1872 28.4625 87.1847 28.4776 87.1853ZM135.372 88.3119C135.342 88.3124 135.312 88.3143 135.282 88.3194C134.89 88.3951 134.705 88.869 135.086 89.4852C135.322 89.8667 135.808 89.9961 136.168 89.7743C136.61 89.504 136.596 89.1469 136.137 88.6869C135.905 88.4561 135.672 88.3402 135.471 88.3152C135.433 88.3115 135.402 88.3113 135.372 88.3119ZM205.761 88.4685C205.889 88.4837 206.09 88.7343 206.403 89.1612C206.902 89.8432 207.312 90.7415 207.312 91.1601C207.312 91.5787 206.95 92.2175 206.509 92.5801C205.891 93.0865 205.685 92.6255 205.604 90.5812C205.543 89.0563 205.543 88.4395 205.761 88.4685ZM32.728 88.6366C32.7735 88.6336 32.8175 88.633 32.8615 88.6366C33.4793 88.6669 34.0112 89.1733 33.974 90.0644C33.9513 90.6435 33.6782 91.6949 33.3749 92.3997L32.8223 93.6789L32.7693 92.3997C32.7238 91.3543 32.6025 91.2908 32.115 92.0589C31.1826 93.5315 30.5268 91.2338 31.41 89.5867C31.711 89.0258 32.1537 88.7252 32.5892 88.6518C32.6347 88.6444 32.6833 88.6366 32.728 88.6366ZM115.617 88.8751C116.25 88.8751 117.053 95.6604 116.522 96.5185C115.875 97.563 115.01 97.3498 114.265 95.9591C113.567 94.6569 114.67 88.8751 115.617 88.8751ZM203.716 89.5404C204.196 89.5336 204.742 89.8599 204.997 90.5223C205.433 91.6586 204.383 93.9997 203.437 93.9997C203.097 93.9997 202.819 93.6485 202.819 93.2174C202.819 92.7867 202.369 93.0751 201.82 93.8586C200.722 95.4236 199.618 95.733 199.603 94.4808C199.597 94.0403 199.431 93.0704 199.23 92.3255C198.796 90.7096 200.586 89.7422 201.937 90.8626C202.623 91.4303 202.819 91.3621 202.819 90.5537C202.819 89.8883 203.236 89.5473 203.716 89.5404ZM20.8229 89.6812C20.8381 89.6802 20.8609 89.6813 20.8836 89.6851C21.2361 89.7457 22.4462 90.3126 23.806 91.066C25.3599 91.9269 29.0869 93.6913 32.0874 94.9856C35.088 96.2799 37.8827 97.7696 38.3004 98.2988C38.7181 98.8309 39.3415 99.0886 39.6833 98.8779C40.5139 98.3654 51.6087 102.676 54.4912 104.632C55.748 105.484 56.3461 106.188 55.8231 106.193C54.994 106.2 54.997 106.279 55.8382 106.823C56.694 107.376 56.6902 107.443 55.8344 107.437C54.2247 107.421 42.8608 102.698 39.8552 100.791C38.3038 99.806 36.4065 98.9313 35.6361 98.8465C33.5702 98.6201 27.5937 95.2166 27.5937 94.2659C27.5937 93.8147 27.0713 93.4884 26.434 93.5346C25.3917 93.6126 20.3167 90.1611 20.7852 89.6933C20.7928 89.6857 20.8078 89.6888 20.8229 89.6812ZM35.5564 90.2013C35.5791 90.1986 35.6019 90.1983 35.6246 90.2013C35.9787 90.2467 36.1613 90.6169 36.0324 91.0228C35.905 91.4285 35.8133 92.5491 35.8285 93.5184C35.8664 95.4361 35.4669 95.809 34.9157 94.3751C34.4108 93.0616 34.8605 90.2862 35.5564 90.2013ZM37.8167 90.7372C37.8547 90.7342 37.8933 90.7373 37.9305 90.7447C38.0161 90.7599 38.0963 90.8092 38.1736 90.8895C38.2941 91.0128 38.0113 91.9797 37.5428 93.037L36.6928 94.9577L36.6397 93.2327C36.6018 91.9942 37.2442 90.7824 37.8167 90.7372ZM39.5287 91.6172C39.9547 91.6178 40.2473 92.5583 40.1988 94.2929C40.1533 95.8918 39.8909 97.2013 39.615 97.2032C38.7704 97.2098 38.0071 94.4014 38.4946 93.0764C38.8243 92.18 39.1594 91.7092 39.4426 91.629C39.473 91.6215 39.5029 91.6172 39.5287 91.6172ZM197.699 92.0518C198.243 92.0896 198.968 93.0838 198.968 93.9959C198.968 95.9456 197.862 96.063 197.495 94.1525C197.311 93.1874 197.255 92.2967 197.377 92.1733C197.438 92.1052 197.514 92.0741 197.593 92.0597C197.63 92.0536 197.661 92.0491 197.699 92.0518ZM194.502 92.216C194.71 92.2312 194.989 92.313 195.348 92.4507C195.99 92.6967 196.402 93.5831 196.402 94.7117C196.402 97.2501 194.749 97.1222 194.232 94.5436C193.878 92.7789 193.876 92.1742 194.502 92.216ZM210.418 92.4431C210.487 92.4355 210.52 92.4396 210.52 92.4623C210.52 92.6333 208.617 93.6257 206.289 94.6684C202.463 96.3826 200.177 97.0678 200.989 96.2565C201.495 95.7517 209.429 92.5714 210.418 92.4431ZM41.7772 92.7247C42.1184 92.7247 42.1979 93.5007 41.9614 94.485C41.436 96.6708 41.3155 96.8257 40.7822 95.9636C40.241 95.0893 40.9679 92.7247 41.7772 92.7247ZM43.685 93.3583C44.0959 93.3583 44.1838 94.2658 43.9124 95.764C43.3863 98.6676 43.1574 98.9924 42.6275 97.6143C42.1068 96.2587 42.8274 93.3583 43.685 93.3583ZM191.627 93.3583C193.093 93.3583 193.252 93.5831 193.072 95.4433C192.918 97.0399 192.534 97.5749 191.427 97.7316C190.161 97.911 189.981 97.6529 189.981 95.6467C189.981 93.6186 190.168 93.3583 191.627 93.3583ZM45.82 93.683L46.0588 95.4551C46.1915 96.4293 46.2036 97.8706 46.0815 98.6588L45.8624 100.094L45.075 98.694C44.4603 97.6022 44.4526 96.8974 45.0523 95.4903L45.82 93.683ZM188.05 94.1486C188.111 94.1445 188.167 94.1509 188.234 94.1789C188.665 94.3227 189.022 95.2533 189.022 96.252C189.022 98.969 187.639 98.947 187.537 96.2218C187.484 94.8543 187.652 94.1777 188.05 94.1486ZM184.383 94.7118C184.436 94.7089 184.502 94.708 184.567 94.7118C184.698 94.7185 184.846 94.7345 185.01 94.7572C186.916 95.0274 187.421 98.3512 185.742 99.5765C183.909 100.915 183.564 100.582 183.564 97.4797C183.564 95.4767 183.633 94.8397 184.226 94.7259C184.279 94.7183 184.326 94.7118 184.383 94.7118ZM47.6337 94.9229C47.9392 94.9298 48.1394 95.6633 48.1394 96.8514C48.1394 98.1059 47.849 99.1358 47.4965 99.1358C47.1433 99.1358 46.8544 98.287 46.8544 97.2503C46.8544 96.2137 47.144 95.1839 47.4965 94.9659C47.542 94.9356 47.5897 94.9229 47.6337 94.9229ZM181.582 95.2242C181.597 95.2218 181.613 95.2221 181.635 95.2242C182.133 95.2847 182.91 97.0052 182.916 98.291C182.931 100.735 181.795 100.512 181.483 98.0094C181.315 96.6904 181.299 95.4761 181.445 95.3103C181.49 95.2574 181.532 95.2318 181.582 95.2242ZM50.5445 95.3726C51.2146 95.3787 51.3475 96.0364 51.3475 98.4433C51.3475 100.232 51.2504 101.698 51.1284 101.698C51.0063 101.698 50.4075 101.143 49.7965 100.47C48.3919 98.92 48.6629 95.7038 50.2233 95.4078C50.3423 95.3851 50.449 95.3726 50.5445 95.3726ZM179.228 96.0183C179.344 96.0168 179.451 96.0258 179.549 96.0485C180.134 96.1628 180.415 96.6685 180.674 97.844C180.943 99.0721 180.814 100.184 180.332 100.762C179.905 101.276 178.998 101.697 178.315 101.697C177.248 101.697 177.1 101.309 177.269 98.9746C177.43 96.7479 177.719 96.2137 178.852 96.0525C178.988 96.0373 179.112 96.0183 179.228 96.0183ZM54.2463 96.1084C54.5033 96.1689 54.8218 97.4667 54.8574 99.4685C54.8877 101.046 54.8596 102.336 54.8043 102.336C54.4079 102.336 53.915 99.9398 53.915 98.0094C53.915 96.7656 54.0386 96.1792 54.1971 96.1122C54.2122 96.1053 54.2236 96.1046 54.2463 96.1084ZM52.1388 96.2492L52.6361 98.8114C53.1622 101.504 53.1212 101.971 52.417 101.268C52.182 101.033 52.0228 99.8084 52.0607 98.5454L52.1388 96.2492ZM175.263 96.6011C175.552 96.6314 175.872 96.9524 176.113 97.5791C176.678 99.05 176.576 100.595 175.839 101.694C175.281 102.526 175.068 102.485 174.245 101.409C173.317 100.193 173.297 100.2 173.297 101.573C173.297 102.345 173.007 102.977 172.654 102.977C172.301 102.977 172.012 101.681 172.012 100.094C172.012 98.5083 172.302 97.2115 172.654 97.2115C173.007 97.2115 173.297 97.6452 173.297 98.1738C173.297 98.7021 173.582 99.1322 173.935 99.1322C174.288 99.1322 174.578 98.5577 174.578 97.853C174.578 97.0892 174.826 96.6641 175.142 96.6091C175.18 96.6024 175.223 96.5975 175.263 96.6011ZM56.8907 96.7026C57.128 96.6963 57.1477 97.0372 56.9628 97.747C56.7642 98.5068 56.8279 99.2682 57.1076 99.4407C57.3873 99.6133 57.7829 99.1228 57.985 98.3494C58.5619 96.1439 59.1799 97.4626 58.7173 99.918C58.3489 101.877 57.1326 102.772 56.1592 101.8C55.5247 101.165 55.8552 97.2719 56.5822 96.8238C56.7096 96.7451 56.8119 96.7049 56.8907 96.7026ZM131.294 97.2029C131.138 97.2029 130.831 97.4928 130.613 97.844C130.394 98.1968 130.521 98.486 130.895 98.486C131.268 98.486 131.576 98.1968 131.576 97.844C131.576 97.4913 131.45 97.2029 131.294 97.2029ZM128.047 97.2105L126.119 97.5315C121.603 98.2816 109.651 98.559 104.46 98.0318C101.372 97.7192 99.0603 97.6752 99.3242 97.9341C99.588 98.193 101.105 98.5336 102.693 98.693C107.576 99.1827 124.081 98.6173 126.119 97.895L128.047 97.2105ZM170.21 97.9069C170.296 97.922 170.455 98.0411 170.68 98.2515C171.119 98.6557 171.346 99.9193 171.197 101.134C170.982 102.894 170.912 102.975 170.829 101.584C170.776 100.644 170.54 99.3467 170.312 98.7011C170.152 98.2514 170.094 98.0009 170.151 97.9305C170.166 97.9154 170.18 97.9069 170.21 97.9069ZM195.27 97.9371C195.558 97.9296 195.759 98.0827 195.759 98.3438C195.759 98.692 194.388 99.3143 192.712 99.7245C191.035 100.135 189.157 100.62 188.54 100.804C187.922 100.988 187.415 101.001 187.415 100.827C187.415 100.655 188.931 100.016 190.784 99.407C192.638 98.7984 194.515 98.1693 194.956 98.0065C195.067 97.9687 195.174 97.9447 195.27 97.9371ZM61.2156 97.9599C61.261 97.9559 61.3088 97.9561 61.3528 97.9599C61.9638 97.9977 62.1957 98.6964 62.3556 100.702C62.552 103.164 62.4086 103.62 61.4429 103.62C60.0614 103.62 59.5249 102.437 59.8054 99.9978C59.9275 98.939 60.4497 98.0999 61.0668 97.9833C61.1199 97.9758 61.1686 97.9599 61.2156 97.9599ZM168.102 97.9901C168.155 97.9826 168.221 97.9865 168.287 98.0092C169.222 98.3203 170.138 101.468 169.658 102.719C169.466 103.218 168.904 103.626 168.412 103.626C167.778 103.626 167.519 102.772 167.519 100.689C167.519 98.944 167.706 98.0657 168.102 97.9901ZM64.0791 98.5223C64.4521 98.5677 64.7318 99.4765 64.7098 101.065C64.687 102.475 64.4407 103.627 64.1534 103.627C63.3505 103.627 62.7647 101.217 63.2211 99.7819C63.4781 98.9742 63.7585 98.5714 64.0045 98.5262C64.0273 98.5215 64.0564 98.5193 64.0791 98.5223ZM164.232 98.545C164.427 98.5374 164.685 98.5601 165.015 98.6055C166.676 98.841 167.221 100.258 166.602 102.721C166.106 104.693 164.318 104.778 164.303 102.831C164.298 102.037 164.111 100.713 163.891 99.8889C163.63 98.9161 163.647 98.5751 164.232 98.545ZM66.4296 99.14C67.1429 99.14 67.3933 99.8909 67.3933 102.027C67.3933 105.191 67.3554 105.256 66.2377 104.139C65.0932 102.996 65.2415 99.14 66.4296 99.14ZM161.118 99.14C162.484 99.14 163.882 101.715 163.527 103.576C163.265 104.952 160.459 105.335 160.459 103.994C160.459 103.441 160.169 102.985 159.817 102.985C159.464 102.985 159.175 103.563 159.175 104.268C159.175 105.122 158.749 105.551 157.894 105.551C156.803 105.551 156.609 105.123 156.609 102.704C156.609 99.5032 157.653 98.3528 158.951 100.126C159.725 101.183 159.817 101.193 159.817 100.223C159.817 99.5626 160.325 99.14 161.118 99.14ZM122.421 99.504C122.194 99.504 121.941 99.5082 121.661 99.5192C121.103 99.5343 120.445 99.5647 119.703 99.6169C116.879 99.8054 114.448 100.064 114.301 100.192C113.749 100.672 122.323 100.313 123.553 99.8046C123.925 99.6509 123.705 99.5525 123.021 99.5192C122.849 99.5116 122.649 99.504 122.421 99.504ZM152.531 99.7819C153.258 99.7819 153.421 100.537 153.271 103.142C153.135 105.51 152.794 106.553 152.116 106.682C151.335 106.831 151.193 106.204 151.371 103.326C151.531 100.749 151.849 99.7819 152.531 99.7819ZM155.324 99.7819C156.025 99.7819 156.203 103.554 155.578 105.18C155.364 105.737 154.898 106.193 154.544 106.193C154.191 106.193 154.079 105.738 154.293 105.18C154.508 104.622 154.682 103.177 154.682 101.972C154.682 100.768 154.971 99.7819 155.324 99.7819ZM110.986 99.8599C110.764 99.8523 110.509 99.8901 110.278 99.981C109.766 100.186 109.918 100.342 110.666 100.372C111.342 100.403 111.721 100.249 111.508 100.036C111.401 99.928 111.209 99.8682 110.986 99.8599ZM105.902 99.8637C105.611 99.8637 105.323 99.9091 105.102 99.9969C104.661 100.175 105.019 100.322 105.902 100.322C106.784 100.322 107.146 100.175 106.705 99.9969C106.484 99.9083 106.192 99.8637 105.902 99.8637ZM71.6515 99.9016C71.7432 99.8996 71.8387 99.9001 71.9335 99.9055C72.3118 99.9282 72.702 100.009 73.0109 100.144C73.6287 100.416 74.5315 100.566 75.0204 100.485C75.6064 100.386 75.7709 100.696 75.5026 101.396C75.2782 101.98 75.0834 103.229 75.0758 104.169C75.0531 105.812 75.0151 105.829 74.1121 104.635C73.2902 103.55 73.1719 103.53 73.1719 104.474C73.1719 105.733 71.8471 105.902 70.7314 104.787C69.6389 103.696 69.7693 100.465 70.9232 100.023C71.1218 99.947 71.3763 99.9077 71.6515 99.9016ZM68.6038 100.163C68.6189 100.16 68.6416 100.16 68.6567 100.163C68.8955 100.224 69.0935 101.012 69.1268 102.072C69.1647 103.284 68.9282 104.275 68.6098 104.275C67.8957 104.275 67.8414 100.625 68.5492 100.187C68.5643 100.179 68.581 100.163 68.6038 100.163ZM149.867 100.429C150.557 100.429 150.83 101.132 150.83 102.913C150.83 104.34 150.42 105.741 149.867 106.199C149.032 106.891 148.907 106.557 148.907 103.711C148.907 101.22 149.136 100.429 149.867 100.429ZM144.633 100.668C144.81 100.66 145.018 100.774 145.271 100.985C145.88 101.487 146.314 101.479 146.834 100.962C147.716 100.081 148.478 102.555 148.159 105.269C147.847 107.92 146.35 108.066 146.282 105.453L146.221 103.313L145.614 105.398C144.713 108.515 143.366 108.085 143.632 104.765C143.867 101.83 144.097 100.698 144.627 100.673L144.633 100.668ZM138.639 101.086C138.7 101.081 138.759 101.084 138.815 101.101C139.497 101.272 139.957 102.841 139.803 104.993C139.637 107.297 139.354 107.838 138.232 107.998C136.96 108.179 136.885 107.975 137.186 105.115C137.364 103.421 137.761 101.761 138.071 101.426C138.267 101.213 138.46 101.103 138.639 101.086ZM184.418 101.116C184.495 101.111 184.558 101.121 184.61 101.139C184.819 101.216 184.849 101.499 184.849 102.039C184.849 102.573 184.277 102.997 183.564 102.997C182.034 102.997 181.863 102.013 183.298 101.464C183.836 101.258 184.188 101.132 184.418 101.116ZM141.813 101.21C141.873 101.205 141.935 101.213 142.004 101.241C143.074 101.591 143.347 104.269 142.533 106.408C142.172 107.357 141.55 108.133 141.151 108.133C140.753 108.133 140.599 107.678 140.814 107.12C141.028 106.562 141.206 104.951 141.206 103.541C141.206 101.997 141.396 101.25 141.813 101.21ZM76.8852 101.233C76.9155 101.231 76.9383 101.233 76.9671 101.237C77.3355 101.305 77.5008 102.111 77.4409 103.604C77.3423 106.2 76.647 107.007 75.9874 105.29C75.4667 103.935 75.9495 101.531 76.7983 101.253C76.8286 101.245 76.8594 101.241 76.8852 101.233ZM81.3627 101.241C81.5447 101.236 81.7304 101.263 81.9154 101.319C82.9053 101.632 83.1721 102.279 83.1494 104.28C83.1191 106.596 82.9614 106.84 81.4609 106.842C79.4445 106.844 78.946 106.404 78.946 104.616C78.946 102.771 80.0877 101.273 81.3627 101.241ZM132.587 101.718C133.881 101.718 134.142 102.035 134.142 103.611C134.142 104.652 133.807 106.237 133.398 107.135C132.155 109.858 131.207 109.07 131.118 105.242C131.04 101.916 131.12 101.718 132.587 101.718ZM135.748 101.718C136.772 101.718 136.948 103.942 136.148 106.799C135.908 107.654 135.317 108.484 134.832 108.645C134.18 108.862 134.055 108.538 134.358 107.409C134.583 106.569 134.772 104.944 134.777 103.799C134.783 102.378 135.092 101.718 135.748 101.718ZM86.5887 101.748C86.6038 101.746 86.619 101.747 86.6341 101.752C86.7243 101.79 86.6418 102.061 86.45 102.577C86.2074 103.223 86.0072 104.447 86.0072 105.3C86.0072 106.152 85.7168 106.853 85.3651 106.853C84.2966 106.853 84.648 103.226 85.8079 102.284C86.2248 101.945 86.4723 101.761 86.5887 101.748ZM128.638 102.135C129.952 102.105 130.291 103.105 130.291 106.262C130.291 108.018 130.016 108.774 129.371 108.774C128.668 108.774 128.54 108.216 128.83 106.43C129.104 104.746 128.999 104.216 128.466 104.545C128.057 104.797 127.725 105.851 127.725 106.888C127.725 107.925 127.435 108.774 127.082 108.774C126.729 108.774 126.44 107.366 126.44 105.644C126.44 102.832 126.602 102.483 128.015 102.214C128.244 102.168 128.45 102.145 128.638 102.135ZM99.614 102.253C100.296 102.255 100.666 103.311 100.578 105.245C100.463 107.764 100.266 108.124 99.0029 108.128C97.9712 108.131 97.5613 107.756 97.5613 106.814C97.5613 106.088 97.2839 105.663 96.9465 105.871C96.6084 106.079 96.4932 106.676 96.6918 107.193C96.92 107.789 96.6654 108.132 95.9869 108.132C95.1462 108.132 94.9564 107.626 95.1133 105.73C95.2778 103.75 95.5613 103.324 96.7234 103.309C97.4988 103.301 98.3419 103.077 98.5959 102.824C98.9234 102.497 99.2168 102.313 99.4735 102.264C99.519 102.257 99.5685 102.253 99.614 102.253ZM90.557 102.339C90.5798 102.342 90.61 102.354 90.6328 102.362C90.9337 102.51 90.9853 103.489 90.7192 105.127C90.5069 106.431 90.0823 107.494 89.7751 107.494C89.036 107.494 89.0815 104.221 89.8358 103.027C90.0951 102.619 90.3134 102.397 90.4824 102.35C90.5127 102.342 90.532 102.339 90.557 102.339ZM87.9715 102.369C88.3824 102.369 88.4703 103.273 88.1989 104.771C87.6728 107.675 87.4438 108.003 86.9141 106.625C86.3933 105.27 87.1132 102.369 87.9715 102.369ZM122.958 102.369C123.734 102.369 123.903 103.011 123.749 105.362C123.477 109.529 122.138 109.718 122.045 105.6C121.992 103.091 122.192 102.369 122.958 102.369ZM93.6322 102.437C93.7254 102.435 93.8087 102.443 93.8792 102.468C94.3022 102.609 94.3303 103.266 94.1651 105.038C93.8975 107.911 92.182 109.28 91.3993 107.244C90.8308 105.764 92.0566 102.72 93.3189 102.475C93.4364 102.453 93.5397 102.445 93.6322 102.437ZM112.001 103.004C112.715 103.004 112.965 103.754 112.965 105.899C112.965 108.736 112.927 108.789 110.99 108.641C109.904 108.559 108.893 108.298 108.746 108.058C108.281 107.307 109.24 103.646 109.901 103.646C110.248 103.646 110.362 104.092 110.152 104.639C109.933 105.212 110.039 105.467 110.403 105.242C110.752 105.027 111.038 104.436 111.038 103.928C111.038 103.42 111.471 103.004 112.001 103.004ZM107.852 103.05C108.412 103.065 108.484 103.328 108.24 103.961C108.014 104.55 107.829 105.874 107.829 106.903C107.829 109.224 106.101 109.462 105.537 107.22C104.919 104.757 105.461 103.344 107.124 103.109C107.425 103.063 107.666 103.042 107.852 103.05ZM125.316 103.08C125.569 103.079 125.798 104.017 125.798 105.893C125.798 107.479 125.524 108.775 125.187 108.775C124.851 108.775 124.637 107.48 124.705 105.896C124.79 104.021 125.065 103.081 125.316 103.08ZM102.251 103.241C102.296 103.234 102.334 103.241 102.368 103.263C102.571 103.405 102.554 104.089 102.33 105.348C101.737 108.621 101.409 108.862 101.409 106.032C101.409 104.761 101.719 103.53 102.095 103.298C102.155 103.26 102.204 103.248 102.251 103.241ZM104.119 103.256C104.142 103.253 104.157 103.256 104.172 103.263C104.426 103.38 104.619 104.451 104.619 105.857C104.619 108.549 103.92 109.599 103.056 108.204C102.586 107.445 103.345 103.719 104.059 103.279C104.074 103.264 104.096 103.256 104.119 103.256ZM118.598 103.293C118.643 103.286 118.69 103.301 118.739 103.331C119.092 103.549 119.381 104.701 119.381 105.894C119.381 107.086 119.091 108.238 118.739 108.456C118.346 108.698 118.096 107.703 118.096 105.894C118.096 104.31 118.286 103.347 118.598 103.293ZM120.717 103.371C120.732 103.372 120.755 103.379 120.77 103.394C121.064 103.576 121.307 104.865 121.307 106.254C121.307 107.643 121.064 108.777 120.77 108.777C120.476 108.777 120.237 107.492 120.237 105.921C120.237 104.547 120.421 103.504 120.664 103.386C120.679 103.379 120.694 103.371 120.717 103.371ZM115.174 103.512C115.189 103.511 115.197 103.518 115.212 103.535C115.25 103.573 115.293 103.664 115.333 103.82C115.497 104.444 115.484 105.311 115.307 105.745C115.131 106.179 114.994 105.668 115.009 104.61C115.016 103.916 115.085 103.523 115.174 103.512ZM116.808 103.565C116.916 103.58 117.042 103.661 117.184 103.8C117.389 104.003 117.456 104.989 117.337 105.99L117.122 107.81L116.616 105.971C116.25 104.637 116.326 103.657 116.706 103.569C116.736 103.562 116.774 103.562 116.808 103.565ZM54.9358 103.854C55.048 103.849 55.2005 103.855 55.39 103.87C56.5309 103.938 58.9838 104.302 61.7205 104.836C78.9106 108.19 94.9409 110.025 107.989 110.132C110.89 110.155 112.964 110.443 112.964 110.821C112.964 111.222 114.004 111.313 115.691 111.056C122.663 109.991 125.311 109.909 125.022 110.774C124.833 111.343 123.854 111.561 122.061 111.431C120.455 111.315 119.381 111.514 119.381 111.928C119.381 112.307 118.947 112.617 118.417 112.617C117.887 112.617 117.458 112.906 117.458 113.258C117.458 113.61 116.372 113.936 115.048 113.974C113.725 114.012 113.125 114.174 113.712 114.33C114.3 114.485 114.939 115.03 115.135 115.538C115.386 116.194 115.015 116.465 113.865 116.465C112.947 116.465 112.419 116.186 112.643 115.823C112.861 115.471 112.46 115.182 111.754 115.182C109.906 115.182 109.469 114.042 111.19 113.712C111.989 113.558 111.341 113.401 109.752 113.356C107.673 113.303 107.136 113.452 107.829 113.899C109.268 114.828 104.247 114.728 102.489 113.793C101.222 113.119 101.176 113.151 101.972 114.114C102.746 115.052 102.682 115.178 101.451 115.178C100.681 115.178 100.21 114.922 100.405 114.607C100.849 113.89 98.9568 113.113 98.0823 113.652C97.7275 113.871 96.5967 113.431 95.5713 112.674C94.5458 111.92 93.7067 111.592 93.7067 111.954C93.7067 112.318 94.0682 112.64 94.5097 112.67C94.9508 112.701 94.449 112.986 93.3893 113.304C92.1569 113.674 90.6973 113.633 89.3347 113.187C88.1638 112.804 87.0614 112.633 86.8863 112.808C86.317 113.376 78.7757 111.332 76.4228 109.972L74.1313 108.649L76.3171 110.535L78.5031 112.424L76.5013 112.13C75.4009 111.969 74.5608 111.521 74.6366 111.133C74.7162 110.725 72.0533 109.85 68.3256 109.064C62.1335 107.757 53.9677 104.66 54.7243 103.904C54.7546 103.874 54.8237 103.862 54.9358 103.854ZM186.311 103.952C186.588 103.954 186.773 104.08 186.773 104.304C186.773 104.645 186.343 104.926 185.813 104.926C185.284 104.926 184.85 104.814 184.85 104.676C184.85 104.537 185.283 104.256 185.813 104.053C185.946 104 186.07 103.972 186.185 103.96C186.231 103.955 186.271 103.952 186.311 103.952ZM173.156 104.32C173.623 104.32 173.871 104.522 173.618 104.93C173.4 105.283 172.586 105.565 171.812 105.56C170.669 105.552 170.587 105.435 171.37 104.93C172.002 104.522 172.689 104.32 173.156 104.32ZM113.772 105.666C113.875 105.688 114.045 105.937 114.324 106.417C114.703 107.06 114.886 107.71 114.736 107.86C114.281 108.314 113.605 107.339 113.627 106.26C113.635 105.844 113.665 105.644 113.772 105.666ZM160.918 106.236C161.161 106.221 161.373 106.267 161.505 106.397C161.697 106.588 161.251 107.068 160.514 107.461C159.586 107.955 159.174 107.967 159.174 107.491C159.174 106.908 160.188 106.288 160.918 106.236ZM58.2304 106.886C58.5374 106.886 59.0631 107.086 59.6916 107.492C60.5211 108.028 60.5051 108.118 59.5702 108.126C58.9736 108.131 58.3039 107.845 58.0856 107.492C57.8347 107.086 57.9242 106.886 58.2304 106.886ZM176.791 107.16C176.821 107.161 176.852 107.165 176.874 107.175C177.04 107.228 176.787 107.447 176.223 107.864C175.538 108.371 174.261 108.783 173.387 108.783C171.228 108.783 172.021 108.147 175.009 107.484C175.844 107.299 176.383 107.189 176.67 107.167C176.715 107.164 176.758 107.159 176.791 107.16ZM152.703 107.575C152.926 107.582 153.118 107.647 153.224 107.75C153.437 107.964 153.059 108.113 152.381 108.083C151.634 108.052 151.483 107.9 151.993 107.695C152.225 107.604 152.48 107.565 152.703 107.575ZM166.469 107.653C166.499 107.654 166.514 107.659 166.529 107.668C166.611 107.706 166.061 107.883 164.955 108.231C163.719 108.62 160.398 109.034 157.574 109.15C154.75 109.267 150.234 109.604 147.538 109.897C143.62 110.324 142.699 110.264 142.954 109.6C143.166 109.05 144.386 108.8 146.57 108.86C150.447 108.972 160.194 108.449 164.312 107.906C165.379 107.765 166.048 107.676 166.349 107.659C166.402 107.656 166.439 107.651 166.469 107.653ZM167.801 108.838C167.881 108.836 167.947 108.838 168.001 108.842C168.322 108.864 168.161 109.01 167.519 109.425C166.989 109.766 165.835 110.018 164.953 109.988L163.347 109.935L164.953 109.422C165.835 109.14 166.989 108.886 167.519 108.855C167.626 108.848 167.72 108.838 167.801 108.838ZM139.823 109.237C141.901 109.305 140.688 110.512 137.546 110.942C133.223 111.533 130.934 111.436 130.934 110.657C130.934 110.278 131.73 110.033 132.701 110.109C133.671 110.185 134.897 110.079 135.427 109.878C135.957 109.675 137.442 109.41 138.726 109.284C139.161 109.238 139.526 109.229 139.823 109.237ZM159.28 110.066C160.398 110.066 161.194 110.17 161.047 110.297C160.281 110.957 157.251 111.294 157.251 110.719C157.251 110.36 158.162 110.066 159.28 110.066ZM127.753 110.081C128.412 110.066 129.01 110.258 129.01 110.656C129.01 110.981 129.88 111.436 130.942 111.67C133.161 112.156 132.909 113.273 130.577 113.273C128.261 113.273 128.672 114.432 131.094 114.732C132.241 114.875 131.026 115.039 128.403 115.092C124.077 115.185 123.745 115.1 124.873 114.251C126.043 113.368 125.979 113.315 123.784 113.293C122.283 113.278 121.311 113.614 121.073 114.232C120.815 114.905 119.884 115.164 117.959 115.088L115.209 114.978L117.618 114.728C119.495 114.532 120.023 114.201 120.023 113.222C120.023 112.073 120.377 111.992 124.195 112.267C126.614 112.442 128.368 112.313 128.368 111.959C128.368 111.624 127.775 111.352 127.047 111.352C126.32 111.352 125.901 111.062 126.119 110.71C126.368 110.307 127.093 110.093 127.753 110.081ZM154.427 110.875C154.548 110.87 154.648 110.869 154.728 110.875C155.049 110.905 155.041 111.027 154.721 111.251C154.213 111.606 151.326 112.068 148.304 112.279C145.282 112.491 141.726 112.805 140.403 112.976C139.002 113.157 137.993 113.014 137.993 112.64C137.993 111.868 137.612 111.921 144.414 111.725C147.415 111.638 151.17 111.352 152.758 111.087C153.509 110.962 154.062 110.892 154.427 110.875ZM65.5285 111.384L67.072 111.414L65.4737 112.502C64.5943 113.1 62.7932 114.566 61.4662 115.752C58.3093 118.573 58.3466 117.269 61.5193 113.941C63.11 112.271 64.5326 111.363 65.5285 111.384ZM167.84 111.994C169.571 111.994 173.735 116.404 175.099 119.681C175.833 121.445 176.32 122.888 176.18 122.888C176.04 122.888 175.05 121.615 173.979 120.06C172.907 118.505 170.871 116.244 169.454 115.033C166.684 112.666 166.328 111.994 167.84 111.994ZM134.863 112.636C135.569 112.636 135.967 112.925 135.748 113.277C135.53 113.63 134.774 113.914 134.068 113.914C133.362 113.914 132.964 113.63 133.182 113.277C133.401 112.924 134.157 112.636 134.863 112.636ZM107.104 115.265C107.57 115.267 108.012 115.314 108.319 115.393C108.933 115.554 108.281 115.678 106.865 115.671C105.453 115.664 104.95 115.531 105.749 115.378C106.148 115.302 106.639 115.262 107.104 115.265ZM126.515 115.91C127.329 115.909 128.168 115.941 128.834 116.012C130.166 116.15 129.233 116.268 126.762 116.27C124.288 116.273 123.201 116.161 124.341 116.019C124.911 115.951 125.701 115.912 126.515 115.91ZM118.022 115.918C118.371 115.922 118.694 115.971 118.911 116.059C119.346 116.234 118.834 116.371 117.775 116.356C116.716 116.341 116.363 116.198 116.988 116.035C117.3 115.953 117.673 115.914 118.022 115.918ZM57.3567 124.183C57.6274 124.191 57.7874 124.429 57.6191 124.934C57.4796 125.353 57.0195 125.807 56.6006 125.947C56.1321 126.103 55.9888 125.813 56.2284 125.188C56.452 124.606 56.8955 124.253 57.2352 124.191C57.2807 124.183 57.3181 124.183 57.3567 124.183ZM173.285 125.603C173.51 125.597 173.743 125.656 173.967 125.795C174.427 126.079 174.403 126.494 173.889 127.113C172.919 128.276 172.012 128.269 172.012 127.094C172.012 126.232 172.609 125.622 173.285 125.603ZM175.675 129.065C175.728 129.067 175.767 129.073 175.804 129.08C176.101 129.156 175.985 129.469 175.2 129.964C174.681 130.293 173.825 130.559 173.296 130.551C172.738 130.543 173.005 130.165 173.935 129.651C174.581 129.294 175.14 129.111 175.505 129.072C175.566 129.065 175.625 129.065 175.675 129.065Z" fill="black"/>
</svg>
