<svg width="390" height="431" viewBox="0 0 390 431" fill="none" xmlns="http://www.w3.org/2000/svg">
<g clip-path="url(#clip0_28_192)">
<path d="M225.272 429.194C225.272 428.125 225.858 427.25 226.575 427.25C229.199 427.25 227.778 424.92 224.296 423.515C219.009 421.382 211.981 421.111 211.308 423.015C210.928 424.091 212.097 424.644 214.747 424.644C219.496 424.644 220.286 427.839 215.833 429.033C210.837 430.373 197.628 429.846 189.906 427.998C184.568 426.721 182.141 426.628 181.11 427.661C180.081 428.69 178.213 428.693 174.394 427.674C171.105 426.795 167.289 426.683 164.309 427.376C157.104 429.051 141.407 428.805 139.592 426.989C137.008 424.404 137.817 422.04 141.285 422.04C143.075 422.04 144.54 422.626 144.54 423.343C144.54 424.06 145.126 424.646 145.843 424.646C147.953 424.646 147.33 420.753 145.192 420.575C138.082 419.983 135.037 420.289 133.854 421.715C132.282 423.61 126.807 423.897 125.722 422.142C125.313 421.48 123.081 420.528 120.762 420.025C118.443 419.524 115.08 418.098 113.29 416.859C109.904 414.515 104.281 412.709 99.3534 412.382C97.7763 412.274 95.1395 410.977 93.4938 409.495C91.8483 408.011 89.4263 406.417 88.1115 405.951C86.196 405.272 85.8078 404.003 86.1583 399.569L86.5951 394.035L82.6886 393.927C76.7105 393.763 76.5092 393.676 71.2949 389.033C65.9567 384.281 64.6904 379.055 68.8768 379.055C71.7207 379.055 73.5075 375.662 71.3625 374.336C70.4351 373.762 70.2565 374.097 70.864 375.271C71.3854 376.278 70.5489 375.488 69.0035 373.519C67.4583 371.548 65.5105 369.955 64.6749 369.978C63.8398 369.993 64.2935 370.88 65.6838 371.932C67.7073 373.463 67.804 373.844 66.1682 373.844C65.0454 373.844 63.4007 372.97 62.515 371.903C61.5399 370.728 59.7533 370.251 57.9853 370.695C54.6454 371.534 50.7852 368.4 50.7852 364.851C50.7852 361.497 52.074 360.737 55.1884 362.254C57.4169 363.341 57.3286 363.101 54.7287 361.008C52.9581 359.584 51.1037 358.669 50.6077 358.975C50.111 359.281 49.4359 358.797 49.1068 357.897C48.6315 356.6 48.1362 356.615 46.7168 357.974C45.2035 359.418 45.2758 359.88 47.1859 360.959C48.4286 361.66 49.4217 363.529 49.3926 365.111C49.3618 366.693 49.7341 369.6 50.214 371.57C50.8476 374.163 50.5968 375.144 49.3095 375.123C46.0533 375.077 41.8644 370.65 40.6955 366.034L39.5404 361.475L36.0477 361.893C31.9595 362.384 31.5061 360.295 34.708 355.722C36.4099 353.291 36.5467 352.141 35.3587 350.239C34.5328 348.916 33.8561 346.652 33.8561 345.209C33.8561 343.766 33.3394 342.587 32.7057 342.587C32.0736 342.587 31.2491 341.414 30.8743 339.981C30.4991 338.549 29.5533 337.376 28.7693 337.376C27.9864 337.376 27.345 338.549 27.345 339.981C27.345 341.545 26.476 342.587 25.1747 342.587C23.9813 342.587 23.3915 342.2 23.8646 341.727C24.3382 341.253 23.4462 339.971 21.8844 338.877C19.8256 337.435 18.9025 337.312 18.5287 338.433C17.6229 341.151 11.7194 340.301 11.7194 337.452C11.7194 336.061 12.3054 334.561 13.0221 334.118C15.6185 332.513 14.2355 329.747 10.4176 328.908C7.38936 328.243 6.51121 327.341 6.51121 324.897C6.51121 322.672 5.78519 321.743 4.04805 321.743C2.52392 321.743 1.28142 320.534 0.789575 318.574C0.352791 316.83 -1.17627 315.032 -2.60689 314.578C-6.41552 313.369 -5.78041 310.259 -1.62712 309.781C0.342256 309.555 1.9538 308.782 1.9538 308.066C1.9538 307.349 0.342256 306.578 -1.62712 306.351C-3.6334 306.12 -5.20804 306.576 -5.20804 307.387C-5.20804 308.336 -6.7774 308.541 -9.76568 307.979C-12.7532 307.419 -14.3231 307.622 -14.3231 308.572C-14.3231 310.728 -17.8349 310.322 -18.7005 308.065C-19.5679 305.806 -26.0423 305.382 -26.0423 307.584C-26.0423 308.534 -27.6292 308.799 -30.5192 308.33C-33.5444 307.839 -35.4963 308.207 -36.5384 309.462C-38.5447 311.88 -41.2538 311.831 -42.6412 309.355L-43.7439 307.384L-59.9595 308.742C-68.8784 309.489 -79.9843 310.253 -84.6395 310.441L-93.1035 310.781L-92.7144 313.55C-92.2161 317.093 -94.2553 317.72 -108.847 318.511C-115.228 318.857 -122.646 319.509 -125.332 319.962C-129.082 320.594 -130.215 320.352 -130.215 318.92C-130.215 315.868 -127.362 313.93 -122.869 313.93C-120.548 313.93 -118.261 313.302 -117.787 312.536C-117.258 311.679 -114.968 311.473 -111.851 311.999C-107.723 312.696 -106.776 312.471 -106.776 310.788C-106.776 309.104 -108.407 308.719 -115.566 308.713C-124.054 308.707 -136.726 311.985 -136.726 314.187C-136.726 314.763 -138.952 315.232 -141.674 315.232C-144.395 315.232 -147.292 315.903 -148.112 316.723C-150.208 318.82 -156.598 316.013 -158.243 312.272C-160.314 307.565 -167.977 308.644 -167.977 313.643C-167.977 315.259 -188.73 316.64 -198.174 315.652C-205.975 314.837 -207.969 312.753 -203.461 310.127L-201.182 308.799L-204.153 308.752C-205.786 308.737 -207.428 309.506 -207.799 310.475C-208.647 312.684 -237.585 313.518 -238.911 311.372C-239.373 310.626 -241.179 310.016 -242.927 310.016C-245.206 310.016 -246.106 309.301 -246.106 307.488C-246.106 306.097 -246.692 304.598 -247.409 304.155C-248.125 303.712 -248.711 303.928 -248.711 304.636C-248.711 305.344 -249.628 306.839 -250.748 307.96L-252.784 309.996L-249.446 311.518C-247.609 312.355 -246.107 313.9 -246.107 314.951C-246.107 317.489 -256.101 316.014 -259.451 312.981C-261.248 311.355 -262.152 311.217 -263.326 312.392C-267.235 316.302 -285.172 312.53 -285.172 307.792C-285.172 306.006 -285.956 304.806 -287.125 304.806C-289.642 304.806 -289.624 302.56 -287.079 300.022C-285.837 298.78 -283.923 298.322 -281.996 298.805L-278.905 299.582L-280.407 296.342C-281.233 294.561 -282.895 293.098 -284.1 293.093C-287.206 293.078 -288.652 287.819 -285.964 286.314C-284.809 285.666 -283.862 283.926 -283.862 282.445C-283.862 280.346 -283.257 279.911 -281.113 280.472C-278.969 281.033 -278.056 280.379 -276.963 277.479C-275.795 274.379 -274.582 273.619 -269.621 272.875C-261.581 271.669 -259.122 270.137 -259.122 266.333C-259.122 262.722 -259.126 262.722 -251.96 264.415C-247.981 265.355 -245.445 265.152 -241.217 263.555C-235.042 261.223 -233.987 259.214 -238.938 259.214C-245.242 259.214 -243.034 254.45 -236.008 252.893C-222.642 249.931 -221.751 249.89 -219.519 252.122C-217.341 254.302 -215.893 254.475 -206.385 253.699C-202.496 253.382 -200.85 252.541 -199.891 250.382C-199.183 248.792 -197.607 247.49 -196.387 247.49C-195.167 247.49 -193.83 246.944 -193.417 246.275C-193.005 245.607 -191.066 245.084 -189.109 245.113C-183.054 245.206 -166.669 240.871 -166.669 239.181C-166.669 237.834 -159.87 234.464 -157.154 234.464C-156.677 234.464 -155.312 236.662 -154.12 239.349C-152.59 242.799 -151.795 243.582 -151.415 242.015C-151.118 240.795 -149.742 239.437 -148.355 238.997C-146.97 238.557 -145.835 237.643 -145.835 236.966C-145.835 236.257 -143.594 236.094 -140.549 236.582C-137.642 237.046 -133.98 236.822 -132.411 236.082C-130.842 235.342 -126.042 233.969 -121.745 233.03C-117.448 232.091 -113.2 230.607 -112.305 229.731C-111.41 228.855 -107.308 227.754 -103.19 227.284C-94.425 226.284 -84.4253 222.949 -82.9411 220.53C-81.5016 218.183 -74.2166 218.307 -74.2166 220.684C-74.2166 221.699 -74.9485 222.825 -75.8441 223.186C-76.7392 223.548 -76.1148 223.889 -74.4569 223.946C-69.703 224.108 -66.5413 221.852 -67.3246 218.856C-67.8183 216.967 -67.3706 216.233 -65.7368 216.233C-63.7808 216.233 -49.4761 202.846 -49.4761 201.016C-49.4761 200.656 -48.304 198.871 -46.8717 197.05C-43.195 192.374 -43.6405 194.508 -47.8362 201.673C-51.5808 208.067 -66.0485 223.475 -71.6126 226.994C-74.7682 228.99 -79.8322 230.145 -90.3595 231.27C-96.6001 231.938 -98.1318 233.12 -92.9895 233.301L-89.1917 233.439L-93.7491 234.678C-96.2557 235.359 -100.416 236.376 -102.995 236.939C-105.573 237.502 -110.294 239.226 -113.485 240.772C-119.942 243.899 -124.059 244.516 -128.907 243.083C-131.008 242.461 -131.554 242.544 -130.446 243.315C-128.449 244.704 -139.548 248.323 -141.708 246.987C-142.416 246.549 -145.992 246.879 -149.654 247.729C-153.315 248.575 -155.695 249.647 -154.943 250.112C-154.174 250.588 -155.115 251.66 -157.086 252.559L-160.597 254.159L-158.892 252.104L-157.186 250.048L-159.649 250.926C-161.004 251.409 -163.141 252.69 -164.399 253.771C-165.657 254.852 -166.993 255.428 -167.369 255.052C-167.744 254.677 -171.989 255.503 -176.801 256.889C-181.613 258.275 -186.645 259.4 -187.981 259.387C-189.318 259.374 -191.783 260.263 -193.458 261.361C-195.134 262.459 -197.055 263.018 -197.727 262.601C-198.4 262.186 -199.272 262.678 -199.665 263.707C-200.057 264.732 -199.68 265.895 -198.825 266.293C-197.97 266.691 -198.442 266.742 -199.874 266.401C-201.306 266.065 -203.357 266.354 -204.432 267.044C-205.507 267.733 -205.874 268.305 -205.248 268.316C-204.624 268.327 -204.916 269.325 -205.899 270.534L-207.686 272.731L-205.34 271.852C-203.663 271.222 -203.286 271.431 -204.017 272.584C-205.024 274.171 -205.246 274.865 -205.569 277.454C-205.662 278.171 -206.391 278.757 -207.194 278.757C-208.253 278.757 -208.241 278.257 -207.148 276.941C-205.996 275.552 -206.056 274.71 -207.406 273.359C-209.068 271.696 -209.637 270.57 -209.637 268.942C-209.637 268.558 -210.859 268.896 -212.353 269.699C-213.846 270.499 -215.363 270.859 -215.723 270.497C-216.083 270.137 -214.714 268.94 -212.682 267.838C-210.649 266.737 -209.704 265.811 -210.582 265.783C-211.46 265.752 -214.097 266.901 -216.442 268.331C-218.786 269.762 -221.877 270.979 -223.309 271.039C-224.741 271.1 -225.178 271.443 -224.278 271.807C-223.378 272.17 -223.051 273.148 -223.552 273.983C-224.052 274.817 -223.46 274.683 -222.227 273.686C-220.998 272.689 -219.572 272.292 -219.058 272.806C-218.544 273.32 -219.15 274.312 -220.391 275.011C-222.304 276.081 -226.566 282.563 -226.566 284.401C-226.566 284.712 -225.272 285.303 -223.693 285.717C-220.381 286.583 -221.009 287.706 -225.263 288.525C-229.311 289.305 -230.224 290.48 -226.783 290.48C-225.143 290.48 -223.962 291.298 -223.962 292.433C-223.962 293.507 -223.04 294.387 -221.915 294.387H-219.869L-221.915 292.34C-223.041 291.214 -223.962 290.015 -223.962 289.676C-223.962 288.577 -214.222 290.814 -213.384 292.105C-212.938 292.793 -208.836 293.541 -204.269 293.768C-199.702 293.994 -197.516 293.906 -199.411 293.558C-201.306 293.217 -203.943 291.661 -205.271 290.102C-206.598 288.543 -206.806 287.922 -205.732 288.722C-204.657 289.522 -201.874 290.585 -199.547 291.082C-197.219 291.581 -195.315 292.563 -195.315 293.266C-195.315 293.969 -193.118 294.361 -190.432 294.139C-187.233 293.875 -185.671 293.144 -185.903 292.022C-186.161 290.772 -185.074 290.497 -181.884 291.004C-175.752 291.979 -173.073 293.161 -173.914 294.523C-174.311 295.164 -173.686 295.689 -172.528 295.689C-171.37 295.689 -170.783 295.102 -171.225 294.385C-172.511 292.305 -170.59 292.879 -168.202 295.29L-166.017 297.497L-168.137 296.696C-169.302 296.254 -170.822 296.458 -171.513 297.149C-172.318 297.955 -173.365 297.686 -174.435 296.397C-175.372 295.268 -177.884 294.473 -180.174 294.583L-184.247 294.778L-180.666 295.322C-171.979 296.639 -178.062 298.165 -189.13 297.446C-195.754 297.015 -200.852 297.012 -200.457 297.438C-200.063 297.864 -197.561 298.38 -194.898 298.584C-189.012 299.037 -188.187 301.22 -193.436 302.456C-196.557 303.189 -190.987 303.057 -184.898 302.251C-184.54 302.205 -185.126 301.597 -186.201 300.902C-189.133 299.006 -184.414 299.306 -176.435 301.522L-169.924 303.33L-178.554 303.423C-184.412 303.484 -187.687 304.117 -188.749 305.398L-190.315 307.285L-178.166 307.146C-171.484 307.069 -166.754 306.76 -167.653 306.451C-170.487 305.472 -167.985 303.503 -163.91 303.503C-161.762 303.503 -160.276 303.063 -160.608 302.526C-160.94 301.99 -156.023 301.549 -149.681 301.549C-143.34 301.549 -138.582 301.98 -139.108 302.506C-140.385 303.783 -147.245 304.61 -157.445 304.718C-162.04 304.764 -165.556 305.038 -165.258 305.322C-164.203 306.326 -150.055 307.291 -149.183 306.419C-148.697 305.933 -146.291 305.708 -143.836 305.919C-141.382 306.132 -135.993 305.588 -131.861 304.713C-122.223 302.672 -80.359 302.653 -79.6803 304.682C-79.4173 305.472 -78.5869 305.738 -77.8343 305.273C-76.0042 304.141 -65.8352 304.192 -63.9753 305.335C-63.1617 305.838 -62.4973 305.615 -62.4973 304.839C-62.4973 303.995 -61.2822 304.225 -59.4634 305.418C-57.7949 306.512 -56.0396 307.016 -55.5627 306.539C-55.0859 306.062 -52.0562 305.772 -48.8303 305.895C-45.6044 306.018 -42.965 305.526 -42.965 304.804C-42.965 304.081 -43.9417 303.49 -45.1353 303.49C-48.4918 303.49 -46.6225 302.41 -41.7919 301.559C-38.5042 300.979 -37.6036 301.213 -38.1028 302.514C-38.6349 303.9 -36.8265 304.044 -28.8195 303.248C-23.3503 302.705 -15.5058 302.167 -11.3878 302.053C-7.26984 301.945 -3.90066 301.336 -3.90066 300.714C-3.90066 300.091 -3.28076 299.582 -2.521 299.582C-1.76278 299.582 -1.53506 300.219 -2.01644 300.997C-2.59626 301.937 -1.35985 302.28 1.6675 302.019C4.29358 301.793 7.20055 302.434 8.52567 303.535L10.8257 305.443L8.63784 301.209L6.44996 296.976L11.3667 296.991C14.1678 297.003 15.6046 297.442 14.7061 298.014C12.9314 299.142 17.1234 306.742 19.5205 306.742C21.7936 306.742 29.8089 316.681 29.0762 318.591C28.6933 319.588 27.7657 320.023 27.0137 319.559C26.2093 319.06 26.0342 319.34 26.5894 320.239C27.1077 321.077 28.0226 321.46 28.6217 321.089C29.2215 320.719 32.5068 323.494 35.9231 327.256C39.3393 331.018 41.7034 333.363 41.1768 332.468C40.637 331.548 40.8802 330.839 41.7384 330.839C42.5735 330.839 42.947 331.647 42.5687 332.635C42.1903 333.623 42.538 335.087 43.3408 335.891C44.2159 336.766 44.2775 337.353 43.4947 337.353C42.7765 337.353 40.2218 335.324 37.8193 332.844C35.4167 330.365 32.907 328.672 32.242 329.083C31.5776 329.494 32.9573 331.816 35.3083 334.243C40.1154 339.204 38.781 340.138 33.0627 335.815L29.3062 332.975L33.1178 337.104C35.2141 339.375 37.2305 340.932 37.5985 340.564C37.9661 340.196 41.0855 342.671 44.5296 346.064C47.9739 349.458 50.7917 351.787 50.7917 351.24C50.7917 350.694 52.8426 351.811 55.3491 353.724C58.3087 355.982 59.9068 358.289 59.9068 360.303C59.9068 362.253 60.6667 363.405 61.951 363.405C63.0753 363.405 66.6921 365.261 69.9885 367.53C73.2846 369.799 76.7595 371.655 77.7102 371.655C78.6607 371.655 79.4391 372.178 79.4391 372.816C79.4391 373.456 80.0081 373.627 80.7033 373.198C81.3984 372.769 83.7361 373.336 85.8981 374.45C88.0602 375.569 90.2749 376.449 90.8195 376.406C92.5446 376.268 102.172 380.875 103.529 382.484C104.246 383.333 109.519 385.316 115.249 386.891C120.978 388.465 127.248 390.566 129.182 391.559C131.116 392.553 134.514 393.365 136.734 393.365C138.953 393.365 142.604 394.314 144.845 395.473C147.086 396.633 151.744 397.623 155.197 397.675C158.65 397.722 161.475 398.245 161.475 398.825C161.475 399.405 163.271 399.879 165.467 399.879C167.662 399.879 170.663 400.523 172.135 401.311C174.08 402.352 174.569 402.352 173.925 401.311C172.852 399.574 173.147 399.544 189.471 399.715C196.633 399.792 203.32 399.324 204.331 398.68C205.529 397.917 206.81 398.149 208.005 399.345C209.014 400.354 211.117 401.189 212.677 401.2C215.004 401.215 215.163 401.454 213.56 402.522C212.188 403.436 213.349 403.589 217.466 403.035C226.564 401.814 231.688 399.897 233.148 397.167C234.738 394.195 234.005 393.939 231.389 396.557C230.351 397.597 227.829 398.866 225.787 399.379L222.073 400.311L225.93 396.735C228.888 393.993 230.638 393.33 233.438 393.89C236.068 394.416 239.647 393.316 246.243 389.952C251.279 387.385 255.753 385.639 256.186 386.073C256.62 386.506 258.339 385.981 260.008 384.902C261.676 383.825 264.594 381.94 266.491 380.713L269.94 378.482L268.415 381.335L266.889 384.188L269.198 383.321L271.507 382.455L269.731 384.639C268.755 385.839 267.547 386.568 267.046 386.259C265.869 385.531 258.852 390.118 259.14 391.426C259.263 391.974 258.576 392.917 257.621 393.524C256.418 394.287 256.362 394.633 257.445 394.647C258.305 394.657 259.477 393.841 260.05 392.832C260.622 391.823 265.275 388.901 270.39 386.337C275.504 383.774 283.122 378.93 287.318 375.572C294.939 369.473 293.165 372.424 283.878 381.294L280.623 384.403L283.853 382.816C285.629 381.942 293.471 374.727 301.28 366.78C322.423 345.264 323.127 344.484 322.224 343.58C321.35 342.706 326.963 334.254 332.848 327.582L336.294 323.675L332.702 330.188C330.725 333.77 327.65 338.272 325.868 340.193L322.627 343.686L326.701 343.375C328.942 343.204 331.46 342.378 332.298 341.541C333.459 340.38 333.148 340.148 330.986 340.565C327.058 341.321 327.438 339.67 332.368 334.559C334.688 332.155 337.939 328.136 339.593 325.629C342.128 321.786 342.479 321.581 341.825 324.326C341.234 326.806 341.357 327.096 342.345 325.541C343.057 324.418 343.921 321.953 344.264 320.062C345.02 315.888 346.585 312.931 348.335 312.369C349.052 312.14 349.504 311.549 349.339 311.058C349.176 310.567 349.864 307.836 350.868 304.989C351.873 302.141 352.389 299.507 352.019 299.136C350.457 297.573 353.166 290.284 355.042 291.004C356.321 291.495 357.558 290.262 358.824 287.23C361.074 281.843 361.351 278.407 359.298 281.339C357.85 283.409 358.565 279.953 360.847 273.849C362.747 268.77 364.707 270.465 363.86 276.455C362.789 284.016 360.734 290.458 359.39 290.458C358.778 290.458 357.88 291.707 357.396 293.235C356.691 295.455 356.264 295.651 355.269 294.212C354.384 292.932 354.262 293.258 354.848 295.343C355.302 296.955 355.194 298.274 354.608 298.274C354.022 298.274 353.479 299.592 353.401 301.205C353.324 302.817 352.806 306.187 352.252 308.695C350.438 316.921 353.804 311.198 356.076 302.193C358.568 292.315 360.915 288.858 359.988 296.432C359.476 300.62 359.806 300.134 361.841 293.715C363.203 289.416 365.556 282.543 367.07 278.442C368.583 274.34 369.78 269.357 369.73 267.369L369.637 263.755L368.41 266.36C367.507 268.276 367.32 267.31 367.698 262.713C368.275 255.709 369.375 253.783 371.173 256.628C372.13 258.142 372.388 257.928 372.405 255.612C372.42 253.441 373.185 252.687 375.355 252.702C377.724 252.717 377.911 252.963 376.331 253.985L374.378 255.248L376.366 255.263C377.875 255.278 378.29 256.616 378.089 260.819L377.824 266.355L379.25 260.168C380.371 255.303 381.255 253.953 383.387 253.851L386.098 253.728L382.843 252.684C380.673 251.989 380.347 251.598 381.866 251.512C383.12 251.435 383.999 250.727 383.82 249.927C383.641 249.127 384.384 248.319 385.471 248.133C392.9 246.859 407.583 242.835 410.839 241.182C413.431 239.867 418.552 239.189 426.057 239.171C432.279 239.157 437.079 238.674 436.723 238.099C436.368 237.524 436.846 237.045 437.781 237.033C439.058 237.018 439.013 236.713 437.6 235.821C436.148 234.902 436.599 234.448 439.553 233.85C441.665 233.422 446.322 232.176 449.902 231.08C453.483 229.983 458.171 228.936 460.32 228.752C462.468 228.567 464.109 227.812 463.966 227.071C463.694 225.657 479.243 221.422 484.704 221.422C486.452 221.422 488.261 221.042 488.724 220.579C490.621 218.682 503.295 215.164 504.018 216.335C504.776 217.562 507.048 217.351 512.841 215.513C515.197 214.765 515.49 214.268 514.144 213.303C512.866 212.388 513.037 212.263 514.791 212.833C516.103 213.259 517.652 213.606 518.233 213.606C521.515 213.606 520.055 216.881 516.718 217.006C514.62 217.083 512.315 217.737 511.596 218.457C510.77 219.283 513.911 219.196 520.121 218.221C525.529 217.372 530.352 216.28 530.838 215.794C532.534 214.097 530.434 213.66 526.294 214.848C523.54 215.637 522.397 215.6 522.929 214.74C523.372 214.021 522.651 212.585 521.327 211.546L518.918 209.657L522.534 211.206C525.3 212.391 526.509 212.396 527.677 211.222C528.517 210.382 530.552 209.694 532.199 209.694C535.395 209.694 536.272 207.741 533.567 206.649C532.595 206.257 532.856 205.95 534.217 205.889C535.471 205.827 536.496 205.207 536.496 204.498C536.496 203.79 537.522 203.296 538.775 203.403C543.257 203.778 545.751 203.159 544.954 201.869C544.117 200.513 545.031 200.044 551.145 198.706C553.115 198.273 554.726 197.071 554.726 196.032C554.726 194.949 555.503 194.442 556.547 194.843C557.549 195.228 558.756 194.92 559.229 194.151C559.702 193.386 559.468 192.76 558.709 192.76C557.951 192.76 557.329 191.809 557.329 190.646C557.329 188.916 557.683 188.826 559.283 190.154C560.631 191.274 561.236 191.323 561.236 190.314C561.236 188.427 565.49 188.419 567.372 190.301C569.183 192.112 571.653 190.706 571.653 187.863C571.653 185.196 573.719 187.174 574.728 190.805C575.126 192.238 575.281 191.49 575.074 189.142C574.84 186.497 575.232 185.073 576.104 185.397C576.878 185.685 577.365 186.58 577.185 187.386C577.007 188.192 577.739 188.852 578.813 188.852C584.524 188.852 579.96 184.123 572.965 182.792C571.181 182.452 568.837 181.441 567.756 180.545C566.675 179.65 561.983 178.168 557.327 177.255C552.672 176.343 548.131 174.989 547.236 174.249C544.841 172.267 545.255 170.201 547.848 171.196C549.08 171.669 549.615 171.586 549.037 171.01C547.682 169.659 532.589 169.639 532.588 170.995C532.587 171.558 531.365 171.362 529.871 170.564C526.484 168.751 527.312 167.873 533.549 166.663L538.446 165.714L534.169 165.56C531.816 165.483 528.473 164.481 526.74 163.345L523.59 161.28L524.742 165.299L525.894 169.318L521.752 169.272L517.612 169.226L520.867 167.247L524.122 165.268L516.96 166.171C508.867 167.191 505.011 167.424 490.393 167.771L480.102 168.016L483.231 170.799L486.36 173.582L479.198 172.759C469.068 171.596 461.464 169.319 463.502 168.059C464.83 167.238 464.824 166.836 463.471 166C462.208 165.22 462.416 164.717 464.309 163.975C465.982 163.319 464.563 162.958 460.084 162.896C456.229 162.85 452.603 163.522 451.62 164.48C447.397 168.592 437.325 165.06 421.349 153.865C413.258 148.195 412.583 146.277 420.531 151.54C426.462 155.467 437.529 155.083 437.529 150.949C437.529 149.589 438.154 148.475 438.917 148.475C441.609 148.475 445.342 151.196 445.342 153.16C445.342 155.168 447.568 155.136 461.944 152.918C464.272 152.56 466.176 152.763 466.176 153.369C466.176 153.976 469.183 155.09 472.858 155.843L479.541 157.212L480.128 154.964C480.933 151.889 495.529 150.886 507.296 153.099C512.136 154.008 517.988 154.446 520.3 154.071C523.823 153.499 524.653 153.862 525.431 156.315L526.36 159.241L537.633 158.598C551.261 157.821 557.327 158.567 557.327 160.998C557.327 161.991 556.669 162.804 555.866 162.804C554.855 162.804 554.904 163.408 556.026 164.757C557.936 167.061 560.717 167.3 561.972 165.27C562.581 164.285 561.925 164.127 559.898 164.768C557.46 165.542 557.085 165.318 557.782 163.499C558.248 162.284 558.63 161.19 558.63 161.069C558.629 160.946 563.464 160.905 569.372 160.977C580.548 161.1 585.975 159.717 585.975 156.739C585.975 153.022 594.349 154.69 596.836 158.902C598.398 161.548 600.171 162.81 602.325 162.81C604.075 162.81 605.507 163.368 605.507 164.051C605.507 164.776 608.22 164.971 612.018 164.521C617.496 163.871 618.529 164.088 618.529 165.885C618.529 167.059 619.115 168.02 619.831 168.02C620.548 168.02 621.134 167.434 621.134 166.717C621.134 166 622.892 165.414 625.04 165.414C627.645 165.414 628.947 166.065 628.947 167.368C628.947 168.442 629.826 169.322 630.9 169.322C632.115 169.322 632.853 168.091 632.853 166.066C632.853 163.644 633.542 162.809 635.539 162.809C637.578 162.809 638.127 163.515 637.818 165.74L637.411 168.671L642.293 168.243C646.472 167.877 647.177 168.197 647.177 170.458C647.177 171.912 648.009 173.569 649.026 174.142C651.817 175.714 653.18 182.348 650.712 182.348C649.637 182.348 648.42 183.228 648.008 184.302C647.004 186.921 642.677 186.779 639.936 184.037L637.718 181.819L638.607 184.622C639.225 186.57 638.684 188.241 636.826 190.097C633.707 193.217 631.55 193.546 631.55 190.902C631.55 187.827 624.621 187.757 623.056 190.81C622.158 192.565 620.141 193.547 616.871 193.819C613.181 194.127 612.018 194.796 612.018 196.611C612.018 197.923 611.138 199.336 610.065 199.748C608.99 200.16 608.112 201.395 608.112 202.492C608.112 203.589 607.056 204.487 605.768 204.487C604.479 204.487 602.867 205.007 602.187 205.644C601.507 206.279 596.262 207.739 590.532 208.886L580.115 210.971L578.162 208.508C575.72 205.428 570.349 207.016 570.349 210.817C570.349 213.265 568.462 213.942 557.663 215.372C553.7 215.896 552.3 217.514 555.808 217.514C559.337 217.514 559.692 222.282 556.351 224.819C552.922 227.423 549.082 227.126 549.817 224.314C550.577 221.409 547.442 218.334 544.767 219.361C543.661 219.786 542.479 221.156 542.138 222.406C541.799 223.656 539.356 225.686 536.712 226.917C529.464 230.292 522.595 227.513 528.147 223.451L530.218 221.935L528.305 220.347C526.399 218.765 521.669 221.699 512.032 230.445C508.533 233.62 502.638 234.088 502.638 231.191C502.638 228.979 500.599 228.571 499.382 230.54C498.939 231.257 496.529 231.843 494.025 231.843C491.522 231.843 487.015 232.951 484.011 234.305C481.006 235.659 475.152 237.518 471.001 238.434C466.851 239.351 463.153 240.587 462.786 241.182C462.418 241.777 460.436 242.263 458.381 242.263C456.326 242.263 453.821 243.086 452.815 244.093C451.809 245.099 449.57 245.962 447.839 246.01C428.592 246.542 414.07 248.619 413.168 250.97C412.747 252.07 411.411 252.628 410.051 252.272C408.48 251.861 407.393 252.527 406.852 254.231C406.228 256.201 405.288 256.626 402.892 256.024L399.751 255.235L400.043 258.844C400.204 260.829 399.84 265.531 399.232 269.292L398.13 276.131H393.814C390.83 276.131 388.872 277.025 387.471 279.026C384.495 283.276 384.779 285.697 388.047 283.947C389.479 283.18 390.652 281.693 390.652 280.644C390.652 275.512 394.381 279.227 395.199 285.174C396.371 293.698 395.245 296.973 391.138 296.973C389.288 296.973 388.243 297.537 388.706 298.287C389.993 300.37 388.137 304.584 385.574 305.398C382.851 306.262 380.234 311.374 380.234 315.828C380.234 317.535 379.355 319.81 378.281 320.885C377.206 321.959 376.328 323.467 376.328 324.234C376.328 325.002 375.45 325.63 374.375 325.63C373.3 325.63 372.422 324.971 372.422 324.168C372.422 323.177 371.771 323.245 370.407 324.379C368.835 325.683 368.754 326.275 370.038 327.069C373.606 329.275 358.634 349.077 353.398 349.077C351.816 349.077 351.505 348.283 352.123 345.821C353.144 341.752 351.586 341.662 347.909 345.579C342.38 351.466 344.531 354.284 353.867 353.386C360.282 352.769 360.343 352.975 356.663 362.814L353.925 370.134L350.478 369.279C348.582 368.808 346.835 367.88 346.597 367.217C346.012 365.591 342.473 365.674 342.473 367.31C342.473 368.027 341.543 368.613 340.407 368.613C339.271 368.613 337.677 370.372 336.866 372.521C335.722 375.554 334.592 376.429 331.822 376.429C329.859 376.429 327.497 377.298 326.573 378.359C325.65 379.421 321.818 383.552 318.058 387.537C314.298 391.523 311.222 395.332 311.222 396.002C311.222 396.673 309.808 397.576 308.079 398.01C306.207 398.48 304.618 400.07 304.148 401.942C303.525 404.423 302.505 405.086 299.306 405.086H295.253L295.962 399.802C296.782 393.683 293.019 392.643 291.573 398.588C289.707 406.261 288.571 407.655 281.031 411.515C276.743 413.71 272.498 415.506 271.596 415.506C270.695 415.506 268.841 416.76 267.477 418.291C261.505 424.996 252.626 426.358 252.626 420.569V416.513L249.045 417.19C247.075 417.562 244.145 418.284 242.534 418.792C240.323 419.491 239.604 419.202 239.604 417.613C239.604 416.454 238.725 415.507 237.651 415.507C236.287 415.507 235.698 416.882 235.698 420.066C235.698 423.757 236.193 424.625 238.302 424.625C241.511 424.625 241.733 428.018 238.628 429.606C234.588 431.671 225.281 431.371 225.281 429.175L225.272 429.194ZM195.974 407.035L206.391 405.253L195.974 405.862C190.245 406.197 181.658 406.604 176.892 406.765C172.126 406.927 168.904 407.49 169.73 408.016C172.029 409.479 184.385 409.018 195.974 407.035ZM111.985 394.559C110.503 393.505 110.973 393.373 113.939 394.01C116.087 394.471 119.31 395.119 121.1 395.452L124.356 396.055L120.449 394.201C118.301 393.181 115.078 391.713 113.288 390.937L110.032 389.526L115.241 390.324C121.532 391.289 120.995 390.247 114.25 388.409C110.733 387.448 109.601 387.473 110.232 388.502C110.802 389.425 110.309 389.619 108.839 389.053C107.588 388.573 105.588 388.171 104.393 388.16L102.22 388.145L104.174 386.777C105.679 385.721 105.419 385.609 103.034 386.285C100.93 386.88 100.226 386.7 100.832 385.719C101.323 384.925 101.249 384.237 100.669 384.189C100.089 384.143 97.5648 383.889 95.0582 383.633L90.5005 383.163L94.7327 385.027C99.7432 387.234 100.33 388.811 95.7092 387.651C88.5627 385.857 93.0343 389.329 101.895 392.454C112.287 396.119 114.947 396.664 111.985 394.559ZM172.733 380.039C173.307 379.107 171.887 378.942 163.42 378.956C161.272 378.96 158.342 378.463 156.91 377.854C155.478 377.245 151.668 376.021 148.446 375.135C145.223 374.249 139.949 372.751 136.726 371.806C133.503 370.862 129.255 370.296 127.286 370.549C123.482 371.039 122.38 369.42 125.658 368.163C129.227 366.794 127.677 365.408 118.894 362.121L110.194 358.864L114.02 358.404C116.421 358.115 120.753 359.403 125.658 361.862C133.194 365.641 139.372 367.635 150.399 369.849C153.264 370.425 156.988 371.448 158.675 372.124C164.055 374.278 169.28 372.731 169.28 368.985V365.725L178.07 366.608C188.977 367.704 191.417 368.39 191.417 370.363C191.417 373.885 196.06 375.037 201.991 372.987C205.127 371.902 209.587 371.32 211.901 371.693C216.376 372.413 217.98 371.108 218.062 366.682C218.093 364.943 219.146 363.929 221.222 363.635C223.819 363.268 224.216 363.644 223.623 365.915C223.135 367.78 223.531 368.634 224.866 368.634C225.941 368.634 227.125 367.462 227.5 366.029C228.281 363.042 229.513 362.797 232.951 364.944C234.928 366.18 236.31 365.92 240.3 363.564C243.003 361.969 247.613 359.849 250.544 358.854L255.873 357.045L253.346 358.931C250.131 361.33 251.105 361.317 256.928 358.885C259.473 357.822 262.001 356.209 262.545 355.303C263.143 354.306 262.56 354.427 261.082 355.609C259.733 356.683 259.047 356.866 259.558 356.014C260.069 355.163 263.844 352.568 267.946 350.25C275.414 346.03 280.698 342.285 286.103 337.382C287.688 335.944 289.671 334.766 290.508 334.766C291.344 334.766 293.123 333.505 294.46 331.962C295.798 330.419 296.892 329.652 296.892 330.257C296.892 330.861 297.724 330.226 298.74 328.827C299.757 327.437 301.222 326.226 301.996 326.136C302.769 326.044 303.989 325.901 304.705 325.81C305.422 325.718 306.008 324.744 306.008 323.64C306.008 320.966 311.341 313.847 312.71 314.694C313.304 315.061 313.406 314.355 312.933 313.126C312.33 311.554 312.553 311.186 313.687 311.886C314.711 312.519 315.146 312.223 314.885 311.072C314.464 309.226 318.607 303.11 323.967 297.667C326.034 295.568 326.442 294.467 325.297 294.085C324.056 293.672 324.239 292.624 326.032 289.887C327.799 287.189 328.016 285.991 326.867 285.28C326.012 284.752 325.219 282.334 325.102 279.908L324.892 275.496L328.55 275.076C330.561 274.845 332.527 273.822 332.918 272.804C333.309 271.785 334.211 271.312 334.924 271.752C335.645 272.198 335.564 271.327 334.741 269.79C333.242 266.986 329.448 265.944 329.448 268.335C329.448 269.053 327.837 269.533 325.868 269.4C318.469 268.896 315.125 269.61 315.125 271.69C315.125 273.941 300.039 273.215 295.279 270.735C293.761 269.944 291.739 270.212 289.158 271.547C287.039 272.644 284.172 273.541 282.788 273.541C281.317 273.541 279.97 274.69 279.548 276.306L278.825 279.071L271.583 278.167C265.483 277.404 264.341 277.585 264.341 279.31C264.341 280.699 263.131 281.357 260.574 281.357C258.427 281.357 256.484 282.198 256.057 283.311C255.127 285.738 251.472 285.876 250.568 283.518C249.871 281.703 235.095 281.176 232.438 282.871C231.722 283.328 227.758 284.122 223.628 284.636C219.269 285.179 215.68 286.358 215.07 287.448C214.479 288.505 211.782 289.435 208.905 289.575C206.092 289.713 203.426 290.324 202.98 290.935C201.755 292.615 179.601 293.715 178.594 292.146C176.905 289.513 171.888 288.821 171.888 291.22V293.442L164.307 292.755C160.026 292.367 155.655 292.662 154.268 293.442C151.256 295.128 134.279 297.276 121.105 297.637C115.733 297.791 109.638 298.371 107.561 298.94C105.203 299.586 102.886 299.414 101.393 298.482C98.2585 296.523 97.6659 296.596 97.6659 298.943C97.6659 300.159 96.4355 300.897 94.4105 300.897C92.385 300.897 91.1553 300.159 91.1553 298.943C91.1553 297.868 90.031 296.989 88.6574 296.989C87.284 296.989 85.2326 296.634 84.0997 296.198C82.494 295.581 82.04 296.306 82.04 299.454C82.04 302.184 81.4033 303.502 80.0868 303.502C79.0117 303.502 78.1336 302.916 78.1336 302.199C78.1336 301.482 76.4104 300.895 74.3041 300.895C72.1977 300.895 70.1124 301.482 69.6698 302.199C69.2268 302.916 67.0788 303.502 64.896 303.502C61.8439 303.502 61.1061 303.969 61.7025 305.523C62.23 306.897 61.9609 307.234 60.8659 306.576C59.7985 305.934 59.8571 306.351 61.0398 307.811L62.8268 310.015L60.3886 310.169C59.0475 310.262 57.3808 310.215 56.6847 310.077C55.9895 309.938 56.5186 311.041 57.8628 312.528C60.849 315.829 61.7668 315.97 60.6132 312.949C59.9534 311.221 60.3871 311.361 62.4129 313.531C64.0962 315.334 64.7714 317.26 64.2391 318.741C63.7747 320.034 63.8917 320.638 64.4991 320.085C65.7434 318.951 77.0389 329.469 76.1395 330.925C75.8212 331.44 77.3191 332.589 79.468 333.479C81.7578 334.429 83.7001 336.396 84.1615 338.235C84.995 341.556 90.6007 345.189 94.8901 345.189C96.3005 345.189 99.3877 347.241 101.752 349.748C104.116 352.256 106.801 354.307 107.718 354.307C108.634 354.307 109.384 355.237 109.384 356.373C109.384 358.07 108.312 357.839 103.361 355.07C97.0149 351.522 94.3582 350.814 95.7315 353.036C96.1852 353.77 94.3152 353.129 91.5765 351.612C85.8216 348.422 83.5024 346.492 85.4247 346.492C86.1414 346.492 87.43 347.195 88.2894 348.055C89.5044 349.271 89.8521 349.245 89.8521 347.932C89.8521 347.006 88.68 345.941 87.2477 345.566C85.8158 345.19 84.6435 344.444 84.6435 343.907C84.6435 343.37 82.2459 341.342 79.3154 339.402C76.385 337.462 74.3198 335.542 74.7263 335.135C75.1323 334.729 76.4556 335.212 77.6656 336.209C78.876 337.208 75.018 333.041 69.0929 326.951C63.1679 320.862 56.9123 313.683 55.1914 310.998C53.4706 308.314 51.4095 306.263 50.6113 306.439C49.8131 306.616 48.9069 306.075 48.5977 305.237C47.9733 303.542 50.4523 303.613 53.2676 305.375C54.4549 306.117 54.8008 306.036 54.2518 305.149C53.0153 303.147 56.6855 302.147 58.705 303.936C59.96 305.047 59.9368 304.816 58.628 303.084C57.0824 301.049 57.0916 300.531 58.6895 299.502C60.1921 298.534 59.9829 298.14 57.6283 297.495C56.017 297.054 54.6984 296.174 54.6984 295.541C54.6984 294.909 56.0165 294.34 57.6283 294.277C59.2398 294.215 65.6854 293.772 71.952 293.292C78.2185 292.813 83.3457 292.739 83.3457 293.127C83.3457 293.516 86.7418 293.52 90.8924 293.135C95.0431 292.751 101.049 292.436 104.239 292.436C107.43 292.436 110.333 292.08 110.691 291.644C111.049 291.209 122.475 289.862 136.083 288.653C173.758 285.305 218.445 279.76 243.51 275.324C271.229 270.419 283.61 268.136 288.434 267.042C311.579 261.794 324.706 259.595 332.056 259.735C335.995 259.812 339.626 259.303 340.124 258.607C341.476 256.721 342.66 258.515 341.705 261.012C341.248 262.201 339.916 263.018 338.744 262.826C337.219 262.577 336.527 263.586 336.309 266.385L336.004 270.293L337.244 267.362C337.925 265.75 339.089 264.431 339.828 264.431C341.546 264.431 341.575 266.634 339.874 267.688C339.157 268.131 338.571 269.924 338.571 271.673C338.571 273.422 338.048 274.853 337.41 274.853C336.772 274.853 335.875 276.342 335.418 278.162C334.962 279.983 334.067 281.15 333.429 280.755C332.792 280.361 331.56 282.243 330.693 284.935C329.826 287.629 328.556 290.539 327.872 291.404C327.188 292.268 326.946 293.489 327.334 294.118C328.026 295.24 323.255 306.115 322.07 306.115C321.738 306.115 321.816 304.797 322.244 303.184C322.67 301.572 321.273 303.476 319.138 307.417C314.604 315.785 313.857 320.153 317.801 315.234L320.412 311.977L318.865 315.559C317.211 319.39 315.838 320.036 314.378 317.671C313.758 316.668 313.092 316.877 312.277 318.333C311.622 319.505 311.419 321.006 311.828 321.667C312.237 322.328 311.89 323.293 311.047 323.812C310.036 324.436 309.842 324.138 310.471 322.925C312.364 319.276 307.881 325.571 304.339 331.537C301.571 336.2 300.114 337.5 298.214 337.003C296.558 336.571 295.041 337.389 293.696 339.443C291.474 342.835 284.692 346.873 283.396 345.576C282.947 345.127 282.579 345.622 282.579 346.687C282.579 348.741 276.061 355.615 274.114 355.615C273.476 355.615 274.972 353.451 277.441 350.805C279.909 348.16 280.697 346.841 279.192 347.874C273.395 351.855 259.661 362.934 256.546 366.142C254.75 367.992 251.523 369.873 249.374 370.323L245.468 371.14L249.374 369.298C251.523 368.286 252.695 367.414 251.979 367.362C251.262 367.316 252.728 365.477 255.234 363.288L259.792 359.306L253.932 363.123C246.901 367.702 234.809 373.827 234.134 373.151C233.868 372.885 231.475 372.521 228.816 372.342C226.158 372.162 223.983 371.459 223.983 370.778C223.983 370.096 222.782 370.624 221.312 371.958C219.694 373.423 217 374.276 214.476 374.123C212.185 373.984 209.431 374.49 208.357 375.249C206.842 376.318 207.133 376.451 209.66 375.837L212.915 375.046L209.66 376.99C204.307 380.187 170.96 382.949 172.746 380.048L172.733 380.039ZM77.5936 369.748C77.912 369.233 77.5782 368.444 76.8492 367.994C76.1217 367.545 75.5266 367.837 75.5266 368.645C75.5266 370.32 67.6427 365.155 65.9389 362.364C64.3817 359.813 61.7762 357.43 50.9246 348.628C45.7504 344.431 41.738 340.777 42.008 340.506C43.08 339.434 51.9337 344.959 55.9081 349.179C58.2259 351.639 59.6978 352.844 59.179 351.856C58.55 350.657 58.8392 350.259 60.045 350.662C61.0401 350.994 61.8539 351.919 61.8539 352.719C61.8539 353.519 62.586 354.907 63.4816 355.802C64.3767 356.698 65.1091 358.227 65.1091 359.201C65.1091 360.175 65.7213 360.593 66.4688 360.13C67.8068 359.303 73.0056 362.061 76.8286 365.627C77.9036 366.629 79.9537 368.287 81.3862 369.31L83.9906 371.17L80.5036 370.928C78.5857 370.789 77.2755 370.264 77.5936 369.748ZM-110.682 295.464C-112.473 294.682 -115.549 294.129 -117.519 294.233C-119.488 294.341 -121.099 293.829 -121.099 293.101C-121.099 292.373 -122.417 291.787 -124.029 291.798C-126.345 291.813 -126.557 292.071 -125.043 293.03L-123.126 294.243L-125.306 295.079C-128.287 296.224 -131.116 294.452 -128.726 292.937C-127.336 292.057 -127.43 291.812 -129.161 291.797C-130.372 291.787 -131.665 292.266 -132.034 292.863C-132.898 294.262 -140.632 293.153 -140.632 291.629C-140.632 290.994 -142.098 290.476 -143.888 290.476C-147.293 290.476 -148.316 288.561 -145.515 287.43C-144.62 287.069 -145.077 286.727 -146.532 286.67C-148.249 286.609 -149.714 285.141 -150.711 282.5C-151.781 279.662 -152.852 278.665 -154.252 279.203C-155.354 279.626 -156.258 279.423 -156.258 278.752C-156.258 278.08 -157.099 277.854 -158.129 278.249C-159.158 278.644 -159.682 279.794 -159.295 280.806C-158.907 281.816 -158.13 282.361 -157.57 282.015C-157.011 281.669 -156.632 282.341 -156.731 283.51C-156.823 284.68 -156.223 285.879 -155.383 286.176C-154.408 286.522 -154.111 285.75 -154.559 284.037C-154.945 282.563 -154.636 281.357 -153.887 281.357C-151.576 281.357 -152.783 286.924 -155.234 287.565C-156.498 287.896 -157.196 288.71 -156.786 289.374C-156.375 290.038 -154.966 290.24 -153.655 289.825C-152.343 289.408 -150.893 289.671 -150.432 290.423C-149.971 291.169 -148.311 291.82 -146.742 291.871L-143.889 291.963L-146.493 293.083C-147.925 293.698 -151.734 294.185 -154.957 294.165C-159.503 294.134 -160.087 293.919 -157.561 293.199L-154.306 292.271L-158.075 291.303C-160.859 290.588 -161.463 289.952 -160.385 288.875C-158.739 287.229 -160.682 283.935 -163.255 284.007C-164.062 284.023 -163.585 284.909 -162.195 285.961C-160.777 287.035 -160.389 287.874 -161.312 287.874C-162.217 287.874 -163.855 288.774 -164.954 289.872C-166.265 291.183 -167.466 291.446 -168.442 290.635C-169.276 289.943 -176.093 289.648 -183.93 289.965C-196.485 290.471 -201.355 289.474 -196.301 287.434C-194.998 286.908 -194.998 286.758 -196.301 286.675C-197.196 286.613 -197.928 286.051 -197.928 285.414C-197.928 284.777 -197.196 284.284 -196.301 284.318C-189.561 284.568 -187.445 283.928 -189.088 282.135L-190.766 280.303L-192.859 282.168L-194.951 284.033L-196.65 281.985C-197.973 280.39 -198.575 280.301 -199.366 281.582C-200.071 282.722 -200.821 282.074 -201.808 279.477C-202.842 276.76 -202.84 275.337 -201.806 274.311C-200.772 273.286 -200.64 273.583 -201.328 275.388C-201.955 277.037 -201.8 277.586 -200.865 277.008C-200.088 276.528 -199.156 276.87 -198.793 277.771C-198.268 279.071 -198.112 279.073 -198.03 277.779C-197.969 276.884 -197.36 276.151 -196.666 276.151C-195.972 276.151 -195.774 277.113 -196.225 278.287C-196.889 280.017 -196.606 280.177 -194.734 279.129C-191.836 277.507 -186.59 279.76 -185.746 282.989C-185.306 284.672 -185.933 285.269 -188.144 285.269C-189.79 285.269 -191.475 286.148 -191.887 287.223C-192.352 288.434 -191.881 289.177 -190.648 289.177C-189.554 289.177 -188.977 288.661 -189.365 288.032C-189.754 287.403 -188.284 286.531 -186.1 286.094C-183.895 285.652 -182.491 284.713 -182.943 283.981C-184.063 282.169 -183.592 282.286 -177.744 285.269C-170.63 288.897 -168.03 288.722 -171.657 284.859C-173.214 283.201 -174.488 281.184 -174.488 280.377C-174.488 279.57 -175.068 278.552 -175.776 278.114C-177.247 277.205 -176.08 281.115 -174.127 283.641C-172.393 285.883 -173.953 285.68 -177.79 283.166C-181.221 280.917 -182.183 276.151 -179.206 276.151C-178.22 276.151 -176.683 275.271 -175.791 274.197C-173.26 271.146 -171.766 271.894 -172.541 275.826L-173.247 279.408L-171.957 276.477C-170.359 272.847 -168.804 272.597 -169.931 276.151C-171.12 279.896 -168.675 279.368 -166.913 275.5C-165.343 272.053 -162.323 270.865 -163.601 274.197C-164.013 275.271 -164.856 276.151 -165.472 276.151C-166.089 276.151 -166.238 277.177 -165.802 278.43C-164.923 280.956 -161.637 283.966 -159.756 283.966C-159.074 283.966 -159.126 283.256 -159.88 282.338C-162.059 279.68 -162.343 273.197 -160.31 272.513C-159.103 272.107 -158.846 272.467 -159.535 273.578C-160.186 274.63 -160.05 274.93 -159.17 274.386C-158.401 273.91 -156.992 274.263 -156.039 275.161C-153.758 277.321 -148.447 278.016 -148.447 276.155C-148.447 275.352 -147.912 275.026 -147.257 275.43C-146.601 275.835 -145.762 275.43 -145.391 274.53C-144.977 273.526 -144.378 274.007 -143.837 275.781C-143.353 277.369 -141.849 279.021 -140.494 279.451C-137.79 280.31 -137.284 282.048 -139.365 283.334C-140.099 283.788 -140.539 283.411 -140.342 282.493C-140.145 281.576 -140.803 280.8 -141.806 280.768C-142.809 280.737 -144.013 279.611 -144.483 278.269L-145.338 275.83L-147.606 278.098L-149.873 280.367L-147.657 282.817C-146.437 284.165 -144.763 285.267 -143.937 285.267C-143.111 285.267 -141.297 286.118 -139.907 287.157L-137.379 289.046L-140.635 288.346C-143.198 287.795 -143.475 287.943 -141.937 289.043C-139.465 290.809 -135.006 290.911 -136.078 289.181C-136.521 288.464 -135.939 287.878 -134.775 287.878C-133.617 287.878 -133.037 288.475 -133.488 289.204C-134.011 290.049 -132.571 290.315 -129.523 289.937C-123.41 289.178 -122.534 288.252 -126.448 286.685C-128.163 285.999 -128.795 285.401 -127.852 285.355C-126.732 285.293 -126.426 284.358 -126.972 282.64L-127.807 280.007L-124.215 283.338C-122.239 285.17 -119.852 286.373 -118.91 286.011C-117.953 285.643 -117.197 286.236 -117.197 287.354C-117.197 288.776 -118.045 289.145 -120.127 288.628C-121.739 288.228 -120.713 289.053 -117.848 290.46C-114.411 292.149 -109.898 293.031 -104.578 293.054C-100.144 293.069 -96.1468 293.686 -95.6948 294.418C-95.2027 295.214 -96.35 295.693 -98.5478 295.61C-100.569 295.533 -103.395 295.79 -104.827 296.182C-106.259 296.574 -108.892 296.25 -110.682 295.464ZM4.70326 278.009C4.28186 276.911 4.44938 276.329 5.07687 276.715C5.70436 277.103 7.01547 276.451 7.99178 275.265L9.7671 273.109L6.02895 274.041L2.2908 274.972L2.88148 270.944C3.29827 268.107 3.0045 267.099 1.86486 267.533C0.922083 267.895 0.3899 267.244 0.579071 265.961C0.774393 264.627 2.12392 263.748 4.03162 263.712C5.92994 263.681 7.01432 262.975 6.78578 261.93C6.51817 260.707 7.3379 260.44 9.60564 261.01L12.8024 261.813L16.8069 255.302C19.6391 250.698 20.2709 248.792 18.965 248.792C16.5285 248.792 17.3663 241.655 20.1262 238.894C21.232 237.788 22.2261 235.019 22.3352 232.742C22.5643 227.941 22.7688 226.713 23.7777 224.043C24.1837 222.967 25.5083 217.399 26.7208 211.668C29.5728 198.186 29.7211 197.786 29.8643 203.201C29.9258 205.708 30.321 209.225 30.7316 211.016C31.3407 213.673 31.1992 213.913 29.9642 212.319L28.4494 210.366L29.1983 212.319C29.6104 213.393 30.3088 215.299 30.7516 216.553C31.193 217.807 32.0726 218.832 32.7055 218.832C35.1281 218.832 33.9051 226.331 31.3751 226.993C29.4565 227.495 28.4104 229.966 26.7614 237.892C23.6398 252.894 22.7084 255.982 21.3784 255.74C20.7217 255.617 20.1251 257.672 20.0544 260.299C19.9775 262.926 19.4914 266.334 18.9608 267.872L17.9965 270.667L24.4914 270.204C28.0635 269.949 32.7444 270.251 34.8934 270.861C37.4427 271.592 39.2991 271.484 40.2346 270.548C41.2789 269.503 41.668 269.509 41.668 270.563C41.668 271.364 42.0234 272.947 42.4586 274.08C42.9846 275.451 42.52 276.14 41.079 276.14C39.8855 276.14 39.2456 276.684 39.6564 277.35C40.0931 278.056 36.0417 278.534 29.903 278.499C24.1279 278.468 19.0411 278.802 18.5989 279.245C17.3131 280.531 11.9488 280.173 11.0651 278.743C10.533 277.88 9.44474 277.873 7.86294 278.713C6.06751 279.675 5.2777 279.506 4.70326 278.009ZM44.4327 274.022C42.3775 269.51 42.599 269.412 51.2583 271.014C55.3424 271.769 59.8074 272.031 61.1808 271.594C62.5542 271.158 66.0952 271.455 69.0497 272.248C72.7249 273.237 74.929 273.274 76.0276 272.355C76.9104 271.621 81.1145 271.078 85.3689 271.146C89.6234 271.207 96.9091 270.595 101.56 269.772C107.234 268.767 110.161 268.71 110.458 269.601C111.238 271.944 113.288 271.018 113.288 268.324C113.288 265.526 118.694 264.647 122.208 266.874C123.191 267.497 126.297 267.464 129.252 266.797C132.737 266.013 134.998 266.071 135.892 266.964C137.757 268.83 142.903 268.672 143.55 266.729C143.959 265.503 145.177 265.474 148.867 266.606C151.5 267.414 153.654 267.683 153.654 267.203C153.654 265.907 166.451 263.104 168.598 263.928C169.615 264.319 172.275 263.561 174.509 262.245L178.57 259.852L179.85 262.132C181.417 264.925 184.72 265.108 185.737 262.458C186.149 261.384 187.994 260.504 189.836 260.504C191.678 260.504 195.227 259.772 197.722 258.876C201.352 257.572 202.368 257.572 202.806 258.876C203.673 261.455 218.762 259.132 218.762 256.42C218.762 253.184 228.762 254.188 229.431 257.491C229.743 259.03 230.635 258.719 233.478 256.077C237.262 252.562 243.488 251.471 243.523 254.316C243.537 255.477 243.873 255.421 244.696 254.123C245.57 252.743 247.583 252.504 252.99 253.139L260.13 253.98L260.81 251.381C261.216 249.828 262.587 248.782 264.216 248.782C265.715 248.782 266.942 248.195 266.942 247.478C266.942 246.761 267.822 246.175 268.895 246.175C269.97 246.175 270.848 247.006 270.848 248.021C270.848 250.805 273.594 251.178 278.639 249.078C281.133 248.039 286.394 247.047 290.329 246.872L297.483 246.555L297.514 243.435L297.545 240.315L307.696 239.012C313.279 238.295 318.26 237.05 318.764 236.244C319.819 234.558 325.135 233.309 332.893 232.924C337.005 232.719 338.119 232.207 337.568 230.771C337.004 229.301 337.752 229.018 340.959 229.489C343.812 229.908 345.073 229.566 345.073 228.364C345.073 227.141 347.136 226.636 352.139 226.636C360.099 226.636 362.09 224.191 357.974 219.472C356.725 218.039 355.181 214.815 354.543 212.307C353.751 209.191 352.536 207.624 350.708 207.355C348.078 206.969 345.073 202.283 345.073 198.568C345.073 197.527 344.526 196.676 343.858 196.676C343.189 196.676 342.669 195.064 342.701 193.094C342.732 191.124 341.818 187.753 340.669 185.604C339.519 183.454 338.574 180.968 338.57 180.079C338.566 179.189 337.39 177.729 335.958 176.834C334.526 175.939 333.353 174.157 333.353 172.874C333.353 170.606 328.466 167.752 326.532 168.89C326.003 169.201 325.92 168.547 326.346 167.435C326.772 166.323 327.654 165.413 328.306 165.413C328.958 165.413 329.297 163.215 329.06 160.529C328.823 157.842 328.017 155.762 327.271 155.907C326.525 156.046 325.145 154.733 324.205 152.976C323.265 151.219 322.009 149.782 321.414 149.782C320.819 149.782 320.332 149.134 320.332 148.344C320.332 145.975 313.98 134.065 310.527 129.96C305.948 124.516 306.536 122.355 311.299 127.12C314.762 130.584 315.89 132.821 316.325 137.082C316.386 137.619 317.1 137.913 317.924 137.733C318.749 137.555 320.726 139.289 322.317 141.589C323.908 143.889 325.537 145.442 325.937 145.042C326.337 144.642 326.361 145.479 325.984 146.901C325.612 148.324 326.045 149.944 326.945 150.5C328.131 151.232 328.34 150.825 327.706 149.018L326.831 146.525L328.794 149.062C329.873 150.458 330.458 152.54 330.093 153.69C329.729 154.839 330.293 156.922 331.348 158.317C333.714 161.446 333.899 163.283 331.722 162.009C330.827 161.486 331.024 162.183 332.159 163.561C333.294 164.938 334.984 167.988 335.915 170.34C336.845 172.691 337.837 174.384 338.119 174.102C338.4 173.821 338.042 172.043 337.325 170.153C335.27 164.745 338.935 165.786 341.595 171.365C342.815 173.923 343.31 175.705 342.696 175.325C342.083 174.947 341.506 176.641 341.414 179.091C341.321 181.542 341.798 183.888 342.472 184.305C343.145 184.722 344.669 187.11 345.856 189.613C347.043 192.116 348.258 193.92 348.556 193.622C348.855 193.323 347.549 190.304 345.656 186.911C343.717 183.439 342.939 180.985 343.874 181.297C345.826 181.948 346.971 183.782 349.752 190.711C351.364 194.728 352.082 195.424 353.116 193.968C354.172 192.479 354.289 192.556 353.713 194.354C353.319 195.585 353.553 196.937 354.234 197.358C354.915 197.779 356.12 199.334 356.911 200.813C358.04 202.923 357.994 203.283 356.697 202.481C355.492 201.735 355.295 202.113 355.973 203.879L356.902 206.3L354.057 203.767L351.212 201.235L353.012 204.166C355.055 207.492 362.672 211.547 364.617 210.344C365.72 209.663 366.52 212.757 365.58 214.061C364.834 215.095 369.266 219.133 372.978 220.804L376.974 222.601L373.28 222.08C371.249 221.792 368.646 220.795 367.496 219.864C365.911 218.579 365.643 218.565 366.389 219.802C367.714 222.009 374.485 225.43 375.506 224.409C375.955 223.959 376.323 224.632 376.323 225.903C376.323 227.525 375.645 227.986 374.044 227.449C372.557 226.951 372.785 227.419 374.695 228.771C378.634 231.575 378.385 232.532 373.624 232.895C370.837 233.107 369.911 232.735 370.57 231.669C371.167 230.702 370.953 230.484 369.992 231.079C369.154 231.598 368.766 232.506 369.132 233.098C369.883 234.312 366.796 235.76 363.52 235.73L361.348 235.714L363.301 234.451C364.667 233.568 364.753 233.182 363.586 233.168C362.667 233.158 361.58 234.028 361.167 235.102C360.755 236.178 359.005 237.056 357.278 237.056C355.551 237.056 349.901 238.15 344.721 239.489C339.542 240.827 330.031 242.628 323.586 243.492C317.14 244.357 309.522 245.617 306.657 246.294C299.741 247.928 270.974 253.251 246.759 257.377C226.389 260.848 216.446 262.121 191.417 264.462C183.181 265.233 174.059 266.394 171.145 267.043C168.232 267.693 157.099 269.054 146.405 270.069C125.084 272.092 125.034 272.096 110.033 272.77C104.303 273.027 95.2209 273.826 89.8495 274.543C84.4782 275.26 76.2746 275.934 71.6195 276.04C66.9642 276.148 59.2937 276.502 54.574 276.833L45.9926 277.433L44.4327 274.022ZM-182.919 271.202C-183.908 268.623 -183.882 268.572 -180.673 266.861L-177.743 265.299L-179.696 267.71L-181.649 270.121L-179.437 269.292C-177.75 268.66 -177.421 268.989 -178.053 270.677L-178.882 272.89L-176.549 270.99C-175.266 269.945 -173.733 267.818 -173.143 266.265C-172.055 263.404 -164.07 259.549 -164.07 261.885C-164.07 262.565 -165.096 263.161 -166.349 263.212C-168.298 263.289 -168.251 263.465 -166.023 264.422C-164.591 265.038 -164.103 265.583 -164.94 265.633C-165.777 265.679 -167.485 266.118 -168.735 266.598C-170.407 267.239 -170.726 267.015 -169.942 265.746C-169.227 264.589 -169.379 264.332 -170.401 264.963C-171.239 265.481 -171.643 266.363 -171.297 266.921C-170.295 268.545 -176.191 272.982 -179.352 272.982C-180.938 272.982 -182.543 272.182 -182.919 271.202ZM-46.8768 224.266C-46.8768 223.497 -46.0772 222.4 -45.1001 221.827C-44.1235 221.255 -42.3672 219.027 -41.1986 216.878C-40.0298 214.728 -37.5362 210.918 -35.657 208.411C-33.4619 205.482 -33.2889 205.016 -35.1726 207.108C-36.7858 208.899 -38.6141 210.218 -39.2356 210.039C-39.8569 209.86 -40.366 210.225 -40.366 210.852C-40.366 211.479 -42.4168 214.231 -44.9234 216.969C-47.43 219.706 -49.481 221.467 -49.481 220.881C-49.481 220.295 -50.3607 220.546 -51.4342 221.436C-54.4293 223.923 -53.7542 220.87 -50.6976 218.102L-48.007 215.666L-49.9633 214.235L-51.9198 212.804L-48.7941 208.979C-47.0751 206.876 -45.6477 205.887 -45.622 206.782C-45.5913 207.678 -46.1619 208.411 -46.8771 208.411C-47.5938 208.411 -48.1798 209.289 -48.1798 210.365C-48.1798 213.879 -45.6802 212.424 -42.0254 206.782C-40.0528 203.738 -37.7006 200.778 -36.7985 200.205C-35.8957 199.632 -35.1581 198.02 -35.1581 196.622C-35.1581 193.976 -32.0005 193.119 -30.6007 195.384C-30.1577 196.101 -28.8343 196.687 -27.659 196.687C-25.9971 196.687 -25.8695 196.339 -27.0852 195.124C-30.2479 191.96 -29.0179 185.181 -25.1982 184.724C-23.301 184.498 -21.3288 183.434 -20.8156 182.358C-15.5456 171.322 -13.0191 164.888 -13.0042 162.465C-12.9734 156.944 -11.4603 153.701 -8.92296 153.701C-7.55109 153.701 -6.09238 152.821 -5.6802 151.747C-5.26803 150.672 -3.91539 149.793 -2.67471 149.793C-0.677808 149.793 2.60362 144.997 2.60362 142.079C2.60362 141.485 0.845751 140.648 -1.3028 140.219C-6.60095 139.159 -6.57929 135.464 -1.27205 135.464C3.43799 135.464 7.21897 129.695 3.86711 127.623C2.33529 126.675 2.60284 125.415 5.43686 120.226L8.85351 113.971L12.8181 114.291C14.9987 114.468 17.1995 113.937 17.7088 113.113C18.304 112.15 18.0578 111.969 17.0212 112.611C15.8785 113.317 15.5355 112.719 15.8431 110.546C16.0907 108.809 17.3303 107.283 18.7111 107.02C20.4631 106.686 20.8487 107.051 20.0891 108.309C19.2309 109.737 19.4431 109.731 21.2364 108.278C23.9635 106.066 24.0778 104.204 21.4873 104.204C20.4122 104.204 19.5341 103.397 19.5341 102.41C19.5341 99.7255 22.9053 97.4459 26.1716 97.9219C27.7591 98.1527 29.2588 97.7558 29.5043 97.0404C30.4071 94.4058 20.5428 95.6142 19.0272 98.3236C18.232 99.7452 16.5552 101.684 15.3019 102.631C14.0377 103.586 13.0232 106.06 13.0232 108.187C13.0232 112.122 12.2481 112.46 6.75832 110.913L3.74907 110.066L10.7084 99.6455L17.6677 89.2252L23.4839 89.2342C27.8796 89.242 29.9462 88.525 31.9458 86.3034C33.4008 84.6861 35.8518 83.3628 37.3922 83.3628C38.9325 83.3628 40.5206 82.3305 40.9213 81.0671C41.3288 79.7825 44.5475 77.7415 48.2333 76.432C52.6842 74.8506 55.3006 73.031 56.3101 70.8145C57.8389 67.4566 63.3937 63.8236 66.9977 63.8236C68.1082 63.8236 69.0889 63.2374 69.1786 62.5204C69.2709 61.8035 69.4138 60.6805 69.5046 60.0238C69.5968 59.3668 70.1074 58.3901 70.6441 57.8527C71.1809 57.3158 71.6209 55.2149 71.6209 53.185C71.6209 50.409 72.2422 49.4943 74.1305 49.4943C75.5116 49.4943 77.7306 48.1082 79.0631 46.4133C80.395 44.7188 82.7289 42.9375 84.2485 42.4551C85.768 41.972 87.722 40.7211 88.5905 39.6743C90.5636 37.2961 93.0448 37.2441 95.333 39.5358C97.7828 41.9865 102.595 39.9836 103.567 36.1079C104.632 31.8656 111.214 28.1751 116.007 29.1339C119.023 29.737 119.801 29.4324 119.805 27.6462C119.808 26.2092 121.932 24.5263 125.695 22.9782C128.931 21.6459 132.172 19.4485 132.897 18.0934C133.622 16.7379 135.237 15.6296 136.485 15.6296C137.733 15.6296 139.771 14.4418 141.013 12.9899L143.272 10.3503L141.302 9.59321C137.693 8.207 139.27 5.33119 144.5 3.7639C152.238 1.44473 157.598 6.88277 150.726 10.0815L147.796 11.4462L150.236 12.4371C151.91 13.1171 153.055 12.751 153.882 11.2724C155.421 8.52111 158.088 8.52587 160.846 11.2854L163.013 13.4534L169.077 11.394C172.412 10.2617 178.072 9.37933 181.652 9.43334C185.233 9.49488 190.902 9.11634 194.249 8.60863L200.335 7.68555L200.909 10.6813L201.481 13.6773L201.658 10.7463C201.796 8.5358 202.635 7.81561 205.091 7.81561C207.116 7.81561 208.346 7.0769 208.346 5.86147C208.346 4.78605 209.26 3.90757 210.376 3.90757C211.493 3.90757 212.082 3.38308 211.685 2.74152C210.882 1.44301 213.857 0 217.34 0C219.71 0 225.273 5.10842 225.273 7.28435C225.273 9.78321 219.737 13.2671 216.692 12.6848C215.009 12.3632 213.943 12.6077 214.321 13.2139C214.7 13.8262 217.285 14.3278 220.065 14.3278C222.845 14.3278 225.482 14.914 225.924 15.631C227.341 17.9231 230.482 17.0249 230.482 14.3278C230.482 11.5807 234.398 10.8882 240.574 12.5437C246.095 14.0237 243.31 18.2356 236.809 18.2356C235.243 18.2356 234.587 18.8066 235.134 19.6928C235.699 20.6067 238.118 20.8636 241.626 20.382C245.43 19.8605 247.424 20.1235 247.862 21.2051C248.216 22.0805 248.553 21.4759 248.61 19.8651C248.687 17.4998 249.466 16.9341 252.619 16.9341C254.767 16.9341 256.525 16.3479 256.525 15.631C256.525 14.914 257.439 14.3278 258.555 14.3278C259.672 14.3278 260.223 13.7416 259.781 13.0247C259.338 12.3077 260.163 11.7218 261.612 11.7218C264.549 11.7218 266.943 15.269 266.943 19.6221V22.4834L262.409 21.7481C257.139 20.8927 254.962 22.9235 259.377 24.577C267.501 27.6183 268.245 27.6399 268.245 24.8368C268.245 22.6275 269.063 22.1439 272.803 22.1439C275.585 22.1439 277.357 22.7777 277.352 23.7722C277.34 26.0508 286.622 33.8673 289.34 33.8673C292.449 33.8673 297.036 39.1123 296.601 42.1698C296.403 43.5607 296.973 44.9473 297.868 45.2527C298.763 45.5589 299.496 44.8805 299.496 43.7451C299.496 40.8847 302.531 41.1656 305.356 44.2881C306.652 45.7204 308.501 46.8932 309.464 46.8932C310.427 46.8932 311.215 47.3533 311.215 47.9149C311.215 48.4764 313.002 49.992 315.185 51.2823C317.411 52.5977 319.037 54.5808 318.888 55.7967C318.491 59.0226 321.325 65.1271 323.228 65.1476C324.141 65.1581 326.206 65.5184 327.818 65.9507L330.748 66.7353V62.8301C330.748 59.9498 329.629 58.0718 326.487 55.6744C322.38 52.5406 319.978 45.5896 323.002 45.5896C324.275 45.5896 325.825 46.5235 335.578 53.1646C337.876 54.7298 340.43 56.0105 341.253 56.0105C342.175 56.0105 342.453 57.1906 341.978 59.0854C341.176 62.2805 346.75 68.7601 359.352 79.2829C362.24 81.6944 364.603 84.4583 364.603 85.425C364.603 86.3911 366.361 89.1852 368.51 91.6332C370.658 94.0811 372.416 96.5799 372.416 97.1859C372.416 97.7921 370.537 95.9566 368.239 93.106C357.722 80.0591 326.854 50.8001 323.607 50.8001C323.247 50.8001 329.759 57.3944 338.08 65.4544C346.401 73.5143 358.714 86.6756 365.441 94.7015C372.169 102.727 378.248 109.649 378.951 110.084C379.654 110.518 380.229 111.516 380.229 112.302C380.229 113.146 379.3 112.943 377.951 111.803C374.8 109.14 371.114 110.244 371.114 113.85C371.114 116.048 371.842 116.763 374.004 116.685C377.603 116.562 378.839 121.009 375.692 122.771L373.491 124.003L377.01 125.829C378.944 126.834 381.268 127.654 382.174 127.654C384.196 127.654 387.079 134.266 386.508 137.593C386.191 139.433 386.774 139.935 388.888 139.644C390.739 139.389 392.571 140.492 394.298 142.901C395.734 144.904 398.723 147.601 400.939 148.896L404.97 151.249V147.264V143.278L409.527 148.325C412.034 151.1 416.132 154.765 418.634 156.469C422.822 159.323 425.294 162.901 421.573 160.724C420.677 160.201 421.117 161.13 422.549 162.791L425.154 165.809L422.224 164.271C416.936 161.496 419.166 164.694 425.158 168.482C428.381 170.518 430.727 172.655 430.372 173.23C430.016 173.805 430.686 174.644 431.857 175.094C433.031 175.544 433.685 176.217 433.314 176.589C432.942 176.961 430.511 176.251 427.912 175.011C425.001 173.622 423.762 172.401 424.685 171.83C425.634 171.244 424.716 170.148 422.207 168.847L418.23 166.79L418.546 169.041C418.72 170.279 421.418 172.719 424.544 174.463C427.669 176.207 429.519 177.869 428.655 178.157C425.67 179.153 404.282 163.662 393.252 152.515C387.165 146.364 383.503 142.835 385.114 144.673C388.842 148.926 388.925 150.984 385.237 147.721L382.431 145.24L384.787 148.9C386.248 151.171 387.48 152.013 388.033 151.118C388.573 150.244 391.359 152.527 395.103 156.911C398.501 160.891 401.753 163.856 402.328 163.5C402.903 163.145 403.294 163.872 403.196 165.119C403.088 166.576 403.946 167.384 405.621 167.384C407.053 167.384 411.952 170.168 416.507 173.571C421.062 176.975 425.408 179.759 426.165 179.759C426.922 179.759 427.208 180.093 426.799 180.501C426.391 180.908 423.51 179.901 420.396 178.258C417.283 176.617 413.686 175.19 412.402 175.086C411.118 174.979 408.775 173.722 407.194 172.284C405.612 170.845 403.44 169.932 402.366 170.254C401.065 170.643 400.915 170.478 401.918 169.761C402.947 169.026 400.948 166.001 395.614 160.218C391.319 155.562 389.07 153.657 390.616 155.986C392.163 158.314 393.146 160.22 392.801 160.22C391.809 160.22 378.925 143.693 378.947 142.45C378.958 141.834 379.535 142.211 380.23 143.285C380.924 144.361 381.502 144.577 381.513 143.77C381.523 142.962 380.541 141.496 379.33 140.513C377.833 139.298 377.44 139.247 378.104 140.353C379.579 142.809 377.006 142.306 374.77 139.702C371.861 136.313 370.443 133.597 372.126 134.638C375.387 136.654 374.615 132.956 370.917 128.842C368.719 126.397 367.718 125.518 368.693 126.888L370.464 129.379L368.511 128.698C367.436 128.324 366.683 126.845 366.836 125.412C367.2 121.991 360.994 115.949 359.537 118.307C358.563 119.883 348.591 109.492 349.054 107.383C349.146 106.934 347.702 104.97 345.832 103.017C343.962 101.064 342.782 99.1158 343.209 98.6879C343.637 98.2602 341.448 96.6893 338.344 95.1973C331.94 92.1184 322.567 85.5424 322.76 84.2645C322.837 83.7968 320.409 81.0166 317.378 78.0864C313.19 74.0373 312.649 73.1104 315.123 74.2251L318.378 75.6914L316.039 73.8032C314.753 72.7647 312.555 72.2147 311.156 72.5801C309.698 72.9616 308.612 72.5917 308.612 71.7138C308.612 70.8723 308.02 70.5492 307.296 70.9969C306.571 71.4446 304.104 69.9353 301.812 67.6422L297.644 63.4733L300.85 64.4609C302.613 65.004 303.708 65.0796 303.285 64.6257C302.862 64.1734 297.961 62.609 292.394 61.1504C286.827 59.6918 280.435 57.6523 278.189 56.6181L274.105 54.7377L278.337 55.4762C285.501 56.7255 283.012 54.9809 275.366 53.3934C268.466 51.9611 261.735 47.3579 261.735 44.0726C261.735 43.291 260.517 42.9955 258.961 43.4033C255.369 44.3433 242.05 41.6785 242.961 40.2028C243.344 39.5812 242.306 39.0642 240.652 39.0534C238.998 39.0431 236.766 38.4149 235.692 37.658C234.194 36.6041 234.725 36.4042 237.971 36.8011C240.298 37.0857 242.203 36.8319 242.203 36.2426C242.203 35.6503 240.426 35.1655 238.255 35.1655C236.083 35.1655 232.203 34.2871 229.632 33.2116C227.06 32.1362 223.417 31.3185 221.535 31.3925C218.659 31.5002 218.892 31.734 222.996 32.8248C225.682 33.5386 227.879 34.5943 227.879 35.1714C227.879 36.4807 216.958 35.1405 216.41 33.7697C216.191 33.2158 212.675 33.0204 208.598 33.3358C203.5 33.7282 201.998 33.5374 203.789 32.7219C207.565 31.0048 203.374 29.4529 199.131 30.9974C197.396 31.6297 192.461 32.2036 188.163 32.2759C181.608 32.3836 181.043 32.2297 184.649 31.3312C191.112 29.7162 191.014 28.8698 184.366 28.8698C181.083 28.8698 178.397 29.3452 178.397 29.9253C178.397 30.5068 177.079 30.9775 175.468 30.9713C173.856 30.9661 171.128 31.413 169.404 31.9653C167.169 32.6807 166.538 32.5362 167.202 31.4608C167.714 30.6315 169.388 29.953 170.922 29.953C173.016 29.953 173.339 29.5822 172.218 28.4606C170.539 26.781 158.411 29.4653 159.526 31.2702C160.985 33.6317 144.914 38.9574 141.918 37.1051C141.311 36.7297 140.43 37.0435 139.958 37.8096C139.364 38.7712 138.528 38.7205 137.232 37.6451C136.205 36.7912 134.996 36.4603 134.547 36.9096C134.098 37.3588 133.068 36.8174 132.256 35.7081L130.781 33.6899L127.286 36.9298C125.364 38.7117 122.601 40.5479 121.145 41.0099C119.69 41.4714 118.499 42.3175 118.499 42.8877C118.499 44.771 108.652 50.7928 105.573 50.7928C103.912 50.7928 98.6695 53.5245 93.9233 56.8634L85.294 62.9343L89.2007 58.7168C91.3492 56.3972 92.2582 54.6912 91.221 54.9257C90.1829 55.1596 87.9329 56.9654 86.2191 58.9375C84.5055 60.9097 82.7109 62.2806 82.231 61.984C81.7512 61.6871 80.1961 62.2948 78.7752 63.3348C76.7194 64.8379 76.5513 65.4472 77.9524 66.3132C79.1797 67.0717 79.2766 67.6717 78.2723 68.2924C77.4802 68.7832 76.8314 68.4801 76.8314 67.6201C76.8314 66.7601 74.4354 68.7802 71.5073 72.108C66.8634 77.3856 62.1687 79.4522 64.6496 75.1268C65.1356 74.2806 64.119 74.8712 62.392 76.4405C60.6652 78.0092 58.6664 79.4353 57.9503 79.6097C57.2336 79.7836 55.5652 81.4317 54.2419 83.2708L51.8358 86.6147L55.2187 82.96C60.3304 77.4369 59.2734 80.684 53.3926 88.5686C50.528 92.4097 48.184 94.7505 48.184 93.7707C48.184 92.6937 46.6645 93.446 44.3391 95.6741C42.2244 97.7008 40.613 99.7155 40.7582 100.151C40.8966 100.587 40.4367 101.14 39.72 101.38C37.1731 102.234 34.9879 104.7 33.2729 108.656C32.3163 110.862 30.6217 113.84 29.5066 115.273L27.479 117.878L28.2528 114.622C28.6788 112.83 29.6001 110.632 30.3008 109.737C31.1467 108.655 31.1081 108.108 30.1931 108.108C27.9322 108.108 24.9863 113.286 25.6981 116.008C26.061 117.394 26.9608 118.529 27.6975 118.529C28.4342 118.529 27.5899 119.865 25.8363 121.498C24.0753 123.13 21.5128 126.366 20.1417 128.688C18.7698 131.01 16.9712 132.649 16.143 132.332C15.3156 132.013 13.5438 133.907 12.207 136.539C10.8705 139.171 8.751 142.091 7.49755 143.027C6.2441 143.963 5.20031 146.015 5.17754 147.586C5.16216 149.158 4.26401 151.598 3.19758 153.008C2.13177 154.419 0.665024 157.781 -0.0613599 160.48C-0.787283 163.179 -2.82689 166.946 -4.59248 168.852C-6.35792 170.758 -7.80261 173.697 -7.80261 175.383C-7.80261 177.07 -8.42382 178.45 -9.18204 178.45C-9.94026 178.45 -10.1434 179.126 -9.63121 179.954C-9.06985 180.862 -9.2728 181.105 -10.1402 180.569C-10.9307 180.08 -12.2521 180.94 -13.0755 182.479C-14.1137 184.419 -14.1339 185.007 -13.1373 184.393C-11.3186 183.268 -11.3343 184.027 -13.214 188.159C-14.0445 189.984 -15.2517 191.477 -15.8952 191.477C-16.538 191.477 -16.695 190.745 -16.2413 189.849C-15.7876 188.953 -16.3489 189.376 -17.4947 190.789C-18.6374 192.201 -19.2742 194.137 -18.9082 195.09C-18.5421 196.044 -18.8005 196.481 -19.4756 196.062C-20.1523 195.644 -21.6361 197.098 -22.7714 199.294C-23.9064 201.49 -25.3562 202.965 -25.9923 202.572C-27.335 201.741 -28.9256 203.93 -29.1804 206.961C-29.4449 210.112 -35.0044 220.136 -36.4868 220.136C-37.1974 220.136 -36.2992 217.791 -34.4909 214.925C-29.8593 207.586 -32.6727 208.427 -38.2706 216.054C-43.5292 223.221 -46.8611 226.406 -46.8611 224.267L-46.8768 224.266ZM353.812 83.6974C351.869 81.7533 350.279 80.882 350.279 81.7613C350.279 84.1332 348.042 83.7097 343.731 80.5213C341.621 78.9602 339.471 78.1055 338.955 78.6219C337.525 80.0527 346.632 87.261 349.876 87.2645C351.445 87.2658 353.123 87.9045 353.604 88.6829C354.233 89.6999 354.882 89.6954 355.912 88.6677C356.955 87.6246 356.383 86.2696 353.812 83.6974ZM32.2479 196.036C32.6124 191.021 33.426 186.259 34.0572 185.455C34.6878 184.65 34.8001 182.942 34.3095 181.659C33.682 180.022 33.885 179.616 34.9908 180.3C36.1442 181.012 36.3503 180.285 35.7582 177.583C35.1399 174.757 35.2752 174.35 36.3364 175.846C37.7421 177.825 38.4554 175.538 37.8606 170.961C37.7376 170.065 38.2219 169.332 38.9202 169.332C40.4978 169.332 42.1152 164.981 42.7933 158.911L43.0115 156.958L44.2743 158.911C45.3063 160.51 45.5399 160.361 45.5568 158.094C45.5671 156.57 46.4551 154.594 47.53 153.702C49.8139 151.805 50.1875 149.204 47.9791 150.569C46.3215 151.594 46.7979 150.677 51.7051 143.424C53.3473 140.996 54.6911 139.463 54.6911 140.018C54.6911 142.897 61.4215 131.597 61.7269 128.206C61.8653 126.669 69.619 118.531 70.9448 118.531C71.4 118.531 71.3983 119.263 70.9394 120.159C70.481 121.055 71.6023 120.162 73.4309 118.174C75.2594 116.187 76.9525 114.722 77.1932 114.918C78.0161 115.589 85.9869 108.244 85.6385 107.137C85.1571 105.605 91.4182 98.3349 94.7608 96.5453L97.5148 95.0715L96.995 97.7707C96.7089 99.2554 94.6911 102.503 92.5108 104.987C87.2617 110.968 87.466 112.975 92.9015 108.828C97.9962 104.941 101.162 104.329 96.3595 108.159C86.7397 115.832 80.8004 119.691 82.2944 117.298C85.4026 112.319 81.9178 112.918 76.8051 118.241C71.592 123.668 70.5918 125.759 72.8247 126.563C73.4876 126.802 72.6094 128.642 70.8715 130.652C69.1338 132.662 67.7121 133.688 67.7121 132.932C67.7121 130.628 62.4789 131.401 61.5887 133.836C61.1304 135.09 59.0719 137.758 57.0144 139.764C52.8148 143.86 50.5076 148.859 51.5561 151.592C52.3004 153.532 45.7025 161.068 43.7881 160.466C43.1636 160.269 42.97 160.938 43.3591 161.953C43.7482 162.969 43.2051 165.453 42.1608 167.475C40.1302 171.39 34.7753 189.562 32.7846 199.293L31.5849 205.155L32.2479 196.036ZM301.674 120.068C299.739 118.048 298.604 115.948 299.151 115.401C299.699 114.853 299.56 114.524 298.843 114.668C295.742 115.295 294.051 114.265 288.321 108.266C284.817 104.597 280.114 101.204 277.2 100.242C274.422 99.3246 272.149 98.1997 272.149 97.7418C272.149 97.2834 270.196 96.2029 267.809 95.3393C265.421 94.4762 262.686 92.3064 261.729 90.5185C260.536 88.2868 258.89 87.2678 256.479 87.2678C254.548 87.2678 251.407 86.0402 249.499 84.538C246.158 81.9093 242.2 81.9146 242.2 84.5484C242.2 85.2469 243.503 86.7305 245.094 87.8458C246.686 88.9612 247.418 89.8561 246.722 89.8347C244.72 89.7731 227.072 83.5792 228.57 83.464C229.31 83.4025 229.847 81.7976 229.764 79.8872C229.565 75.3609 226.22 74.1729 215.559 74.8446C208.713 75.2754 206.587 74.9061 203.973 72.8536C200.237 69.9138 199.229 69.7247 199.229 71.9629C199.229 73.1906 194.514 73.5936 180.022 73.6013C163.874 73.6104 160.303 73.9719 157.596 75.8806C153.727 78.6078 150.278 78.8069 149.338 76.3576C148.889 75.1868 147.419 74.8001 145.099 75.2437C142.474 75.7452 141.81 75.4977 142.556 74.2915C143.236 73.1899 145.216 72.9235 148.641 73.4712C152.717 74.1236 155.277 73.5021 161.632 70.355C169.875 66.2641 172.599 65.5193 171.233 67.7295C170.221 69.366 170.186 69.3703 176.442 67.1156C179.306 66.0833 183.701 65.2724 186.208 65.3143L190.766 65.3913L186.208 66.7036C183.701 67.4252 180.185 68.5308 178.395 69.1604L175.14 70.305L179.046 69.7005C181.195 69.3682 186.468 68.9989 190.766 68.8819C200.256 68.6204 203.413 67.9311 202.427 66.3346C201.22 64.3806 205.276 64.9515 206.952 66.97C208.167 68.4332 207.998 68.9539 206.135 69.4871C204.844 69.8564 206.635 69.8303 210.117 69.4256C213.969 68.9795 216.781 69.2349 217.301 70.078C218.055 71.2965 229.938 75.0002 243.503 78.2432C246.01 78.8417 249.475 78.9786 251.204 78.5463C253.675 77.9293 254.184 78.1893 253.579 79.7663C253.023 81.2171 253.888 81.9876 256.707 82.5513C258.85 82.9805 260.258 83.8897 259.837 84.5725C259.411 85.2633 260.656 85.7033 262.648 85.5649C264.984 85.4018 266.237 85.9617 266.258 87.1758C266.274 88.1989 267.759 89.4288 269.554 89.9091C273.541 90.9753 281.266 94.8922 281.266 95.8469C281.266 96.2284 280.589 96.1237 279.763 95.6114C278.802 95.0175 278.614 95.2561 279.243 96.2746C279.784 97.15 281.077 97.5407 282.116 97.1423C283.171 96.7376 283.654 96.9854 283.21 97.7055C282.773 98.4132 282.888 99.0053 283.468 99.0222C284.048 99.0376 285.986 100.247 287.777 101.709L291.032 104.367L287.777 103.572L284.521 102.776L286.879 104.25C288.176 105.061 290.013 105.426 290.962 105.063C293.069 104.253 298.509 107.85 297.543 109.414C297.161 110.033 298.018 111.359 299.449 112.361C300.879 113.363 302.235 115.398 302.461 116.882C302.687 118.367 303.65 120.518 304.599 121.662C307.451 125.1 305.446 124.006 301.674 120.068ZM98.9639 95.8011C98.9639 93.8604 108.389 88.2681 109.267 89.6882C109.953 90.799 111.965 89.7028 115.983 86.0285C119.138 83.1433 122.313 80.8957 123.038 81.0335C123.762 81.172 126.302 80.2488 128.681 78.9836C132.184 77.1208 133.379 76.9926 134.966 78.3099C136.402 79.5022 137.168 79.5437 137.837 78.4636C138.379 77.5851 139.463 77.4298 140.513 78.0791C143.147 79.7072 137.433 82.8897 129.996 83.9373C126.653 84.4081 123.212 85.6443 122.35 86.6837C121.487 87.7238 119.974 88.5738 118.988 88.5738C118 88.5738 117.194 89.4014 117.194 90.4131C117.194 91.5439 115.189 92.5915 111.992 93.1319C109.131 93.615 106.46 94.5456 106.056 95.2001C105.325 96.3817 98.9639 96.92 98.9639 95.8011ZM225.861 91.9522C225.309 89.0047 224.079 87.0644 222.433 86.5419C217.226 84.8886 220.94 84.9401 227.877 86.6189C231.816 87.5713 234.429 88.4004 233.685 88.4613C232.941 88.5229 232.355 90.184 232.382 92.1541C232.475 98.106 226.983 97.9355 225.861 91.9522Z" fill="black" fill-opacity="0.04"/>
<path d="M18.9608 267.872C18.9608 267.872 30.7622 80.8596 180.022 73.6013C329.283 66.3431 352.139 226.636 352.139 226.636C352.139 226.636 127.126 277.14 24.4914 270.204L18.9608 267.872Z" fill="black" fill-opacity="0.04"/>
<path d="M64.8959 303.501L325.867 269.399C325.867 269.399 316.952 346.291 211.901 371.693C106.851 397.094 64.8959 303.501 64.8959 303.501Z" fill="black" fill-opacity="0.04"/>
</g>
<defs>
<clipPath id="clip0_28_192">
<rect width="941" height="431" fill="white" transform="translate(-289)"/>
</clipPath>
</defs>
</svg>
