<svg width="65" height="54" viewBox="0 0 65 54" fill="none" xmlns="http://www.w3.org/2000/svg">
<path d="M4.04944 53.8733C1.94736 53.3797 0.229922 51.3077 0.0214325 49.0138C-0.231377 46.2328 1.78146 43.6059 4.5194 43.1435C5.87161 42.9152 7.37891 43.2123 8.41772 43.9124C8.69487 44.0991 8.93967 44.2519 8.96169 44.2519C8.98258 44.2519 9.00166 43.0367 9.00166 41.5515V38.851L9.31002 38.5914C9.73593 38.2325 10.2037 38.2442 10.6286 38.6246L10.9559 38.9174V44.1186C10.9559 48.1914 10.9261 49.4394 10.8185 49.8716C10.3636 51.6975 8.82802 53.2894 7.00429 53.8258C6.40309 54.0025 4.71512 54.0297 4.04944 53.8733ZM6.94727 51.6814C9.60208 50.3778 9.55631 46.6308 6.87048 45.3954C4.94252 44.5086 2.73577 45.5842 2.13169 47.7052C1.65277 49.3869 2.74598 51.3256 4.49122 51.8896C5.02217 52.0612 6.41415 51.9432 6.94727 51.6814ZM15.714 53.7573C14.0008 53.1724 12.61 51.6722 12.1617 49.9255C11.8666 48.7756 12.0252 47.1099 12.5232 46.1303C14.2819 42.6706 18.7869 42.0122 21.4886 44.82C22.996 46.3865 23.3771 48.907 22.4154 50.9498C21.8379 52.1767 20.4459 53.3843 19.1454 53.7864C18.2133 54.0747 16.6037 54.0609 15.714 53.7573ZM18.8902 51.6856C19.6616 51.3202 20.2677 50.7222 20.6122 49.9866C20.8375 49.5051 20.8775 49.2839 20.8775 48.5167C20.8775 47.6799 20.8514 47.5674 20.5369 46.9846C19.868 45.7494 18.8225 45.1105 17.4701 45.1105C16.0882 45.1105 15.0062 45.7903 14.3894 47.0459C14.098 47.6391 14.0628 47.8032 14.0633 48.5654C14.0639 49.5909 14.3455 50.305 15.0126 50.9731C15.6817 51.643 16.5018 51.9785 17.4701 51.9785C18.1479 51.9785 18.3674 51.9333 18.8902 51.6856ZM27.9429 53.8418C26.2971 53.3825 24.838 51.9972 24.2596 50.3446C23.9121 49.3518 23.8925 47.9313 24.212 46.8991C24.8159 44.9482 26.6041 43.4174 28.6195 43.1263C30.2096 42.8967 31.8858 43.3651 32.9307 44.3309C33.3007 44.673 33.3547 44.7769 33.3547 45.1474C33.3547 46.0485 32.4867 46.4367 31.6901 45.892C30.2094 44.8796 28.8276 44.8215 27.4675 45.7144C26.4921 46.3548 25.8403 47.7634 25.9845 48.9194C26.3161 51.5767 29.399 52.884 31.5679 51.2869C32.3591 50.7043 33.2059 50.9714 33.3223 51.8405C33.3719 52.2111 33.3405 52.2951 33.0172 52.6532C32.603 53.1124 31.6599 53.647 30.9126 53.8462C30.2794 54.0149 28.5543 54.0134 27.9429 53.8418ZM34.7097 53.7461C34.5781 53.6143 34.4429 53.3547 34.4094 53.1691C34.376 52.9835 34.3616 49.7009 34.3778 45.8744L34.407 38.9171L34.7343 38.6243C35.1816 38.2242 35.6684 38.2245 36.0683 38.6249L36.3612 38.9182V42.9398C36.3612 45.362 36.3986 46.9614 36.4548 46.9614C36.5062 46.9614 37.8704 46.0978 39.4863 45.0423C41.4936 43.7312 42.5371 43.1079 42.7801 43.075C43.4622 42.9827 44.0487 43.7882 43.7919 44.4647C43.7211 44.6511 43.0842 45.12 41.5554 46.1112C40.3798 46.8734 39.4017 47.5093 39.382 47.5244C39.3611 47.5401 40.3315 48.6625 41.5359 50.02C42.7403 51.3776 43.7626 52.5881 43.8079 52.7102C44.0447 53.3494 43.5553 53.9858 42.827 53.9858C42.3314 53.9858 42.3793 54.032 39.4743 50.7487L37.6313 48.6658L37.372 48.8341C37.2294 48.9267 36.9437 49.1137 36.737 49.2497L36.3611 49.4968V51.4767V53.4567L36.0969 53.7212C35.7363 54.0823 35.0576 54.0932 34.7097 53.7461ZM48.5878 53.7644C47.6696 53.4416 47.1257 53.0952 46.4331 52.3918C45.3203 51.2618 44.879 50.1789 44.8809 48.5828C44.8828 47.0428 45.2708 45.9588 46.1896 44.9266C48.344 42.5064 51.9117 42.4203 54.1932 44.7336C55.0463 45.5986 55.4349 46.2917 55.6582 47.3467C55.8839 48.4122 55.852 48.8118 55.5112 49.1938L55.2188 49.5216L51.0988 49.5718L46.9789 49.622L47.24 50.1465C47.8119 51.2954 48.9829 51.9809 50.3705 51.9792C51.1934 51.9781 51.7211 51.7987 52.5354 51.2427C53.137 50.832 53.8217 50.9575 54.0803 51.5258C54.4376 52.3109 53.804 53.0775 52.2853 53.6976C51.4422 54.0418 49.4777 54.0773 48.5878 53.7644ZM53.5986 47.4348C53.5986 47.1419 52.9142 46.1918 52.4462 45.835C51.7624 45.3137 50.7566 45.0093 50.0063 45.0966C49.2841 45.1808 48.3237 45.6282 47.8523 46.1002C47.5466 46.4063 46.9843 47.3204 46.9843 47.5112C46.9843 47.5405 48.4725 47.5648 50.2915 47.5648C52.9307 47.5648 53.5986 47.5387 53.5986 47.4348ZM57.0367 53.7448L56.7555 53.5026V48.5687V43.6348L57.0954 43.3306C57.3907 43.0665 57.4895 43.0337 57.8469 43.0817C58.3112 43.1439 58.7098 43.5179 58.7098 43.8909C58.7098 44.2517 58.7897 44.2532 59.3098 43.9039C60.3284 43.2175 61.8209 42.9249 63.2028 43.1405C64.4967 43.3424 65.1206 43.8551 64.9807 44.6016C64.8559 45.2675 64.244 45.5639 63.5212 45.3084C61.4991 44.5936 59.3879 45.6833 58.8641 47.7122C58.7448 48.1752 58.7098 48.892 58.7098 50.8846V53.4588L58.4456 53.7235C58.087 54.0825 57.4396 54.0906 57.0367 53.7448ZM25.0867 33.8142C22.5179 33.5865 20.5121 33.0571 18.6226 32.1083C13.9054 29.7392 11.0254 24.7551 10.9705 18.8654C10.9627 18.0099 10.9914 17.1416 11.0352 16.9359L11.1146 16.5618L28.373 16.5336C47.2788 16.5027 45.8454 16.5466 47.3512 15.9453L47.8683 15.7387L47.5801 15.1196C47.1231 14.1381 46.9533 13.3228 46.9601 12.1422C46.9705 10.3675 47.3598 9.04787 48.3156 7.55097L48.843 6.72507L49.4955 7.16336C51.2877 8.36719 52.5939 10.0924 52.9113 11.6749L53.0149 12.1924L54.785 12.1976C56.9188 12.2054 57.757 12.388 58.7944 13.07C59.1504 13.3041 59.4836 13.5232 59.5348 13.5568C59.586 13.5906 59.4489 13.9743 59.23 14.4098C57.9451 16.9653 56.3472 18.0087 53.301 18.2813L52.0453 18.3937L51.276 19.9625C47.7769 27.0987 41.6827 31.6974 33.6553 33.2592C31.0809 33.7601 27.2682 34.0076 25.0867 33.8142ZM14.7142 13.2961V11.0383H17.2196H19.725V13.2961V15.5539H17.2196H14.7142V13.2961ZM20.627 13.2961V11.0383H23.1324H25.6379V13.2961V15.5539H23.1324H20.627V13.2961ZM26.6401 13.2961V11.0383H29.0954H31.5507V13.2961V15.5539H29.0954H26.6401V13.2961ZM32.5529 13.2961V11.0383H35.0584H37.5638V13.2961V15.5539H35.0584H32.5529V13.2961ZM38.4658 13.2961V11.0383H40.9712H43.4767V13.2961V15.5539H40.9712H38.4658V13.2961ZM20.627 7.77698V5.51914H23.1324H25.6379V7.77698V10.0348H23.1324H20.627V7.77698ZM26.6401 7.77698V5.51914H29.0954H31.5507V7.77698V10.0348H29.0954H26.6401V7.77698ZM32.5529 7.77698V5.51914H35.0584H37.5638V7.77698V10.0348H35.0584H32.5529V7.77698ZM32.5529 2.30803V0H35.0584H37.5638V2.30803V4.61607H35.0584H32.5529V2.30803Z" fill="black"/>
</svg>
