<svg width="43" height="48" viewBox="0 0 43 48" fill="none" xmlns="http://www.w3.org/2000/svg">
<path d="M21.4087 44.2357L14.8079 40.4789L14.8051 32.887L14.8023 25.2951L15.0271 25.415C15.1509 25.481 18.1409 27.1799 21.6717 29.1903L28.0915 32.8457L28.1136 40.4267C28.1247 44.5962 28.1081 48.0042 28.0729 48C28.039 47.9945 25.0391 46.3019 21.4087 44.2357ZM21.4467 27.364L14.8021 23.5781V16.0079C14.8021 11.2482 14.8309 8.44777 14.8801 8.46484C14.9228 8.47865 17.9218 10.1767 21.5442 12.236L28.1304 15.98L28.1313 23.5698C28.1318 27.7442 28.123 31.1574 28.1119 31.1546C28.1008 31.152 25.1012 29.4462 21.4467 27.364ZM29.687 23.5714L29.6879 15.98L36.2741 12.236C39.8965 10.1767 42.8955 8.47967 42.9386 8.46467C42.9883 8.4481 43.0094 11.2185 42.9961 16.0313L42.9739 23.6251L36.6359 27.2339C33.1501 29.2188 30.16 30.9147 29.9913 31.0028L29.6847 31.1627L29.687 23.5714ZM6.64457 18.8992L0 15.1134V7.5432C0 2.78346 0.0288412 -0.0169935 0.0779671 7.75978e-05C0.120709 0.0138892 3.11969 1.712 6.7421 3.7712L13.3283 7.51525L13.3292 15.105C13.3297 19.2794 13.3209 22.6926 13.3098 22.6899C13.2987 22.6872 10.2991 20.9814 6.64457 18.8992Z" fill="black"/>
</svg>
